PreviousResults/hyperram_cover/engine_0/trace22.vcd
$version Generated by Yosys-SMTBMC $end
$timescale 1ns $end
$var integer 32 t smt_step $end
$var event 1 ! smt_clock $end
$scope module hyperram $end
$var wire 8 n0 CA_0 $end
$var wire 8 n1 CA_1 $end
$var wire 8 n2 CA_2 $end
$var wire 8 n3 CA_3 $end
$var wire 8 n4 CA_4 $end
$var wire 8 n5 CA_5 $end
$var wire 48 n6 CA_r $end
$var wire 32 n7 addr_i $end
$var wire 1 n8 bus_clk_r $end
$var wire 3 n9 bus_state_r $end
$var wire 1 n10 busy_r $end
$var wire 1 n11 clk_active $end
$var wire 1 n12 clk_i $end
$var wire 6 n13 cycle_cnt_r $end
$var wire 32 n14 data_i $end
$var wire 32 n15 data_o $end
$var wire 8 n16 datar_0 $end
$var wire 8 n17 datar_1 $end
$var wire 8 n18 datar_2 $end
$var wire 8 n19 datar_3 $end
$var wire 32 n20 datar_r $end
$var wire 8 n21 dataw_0 $end
$var wire 8 n22 dataw_1 $end
$var wire 8 n23 dataw_2 $end
$var wire 8 n24 dataw_3 $end
$var wire 32 n25 dataw_r $end
$var wire 1 n26 double_latency_i $end
$var wire 1 n27 double_latency_r $end
$var wire 1 n28 f_past_valid $end
$var wire 1 n29 fixed_latency_i $end
$var wire 1 n30 fixed_latency_r $end
$var wire 1 n31 hb_clk_o $end
$var wire 1 n32 hb_clkn_o $end
$var wire 1 n33 hb_csn_o $end
$var wire 8 n34 hb_dq_i $end
$var wire 8 n35 hb_dq_o $end
$var wire 1 n36 hb_dq_oen $end
$var wire 1 n37 hb_rst_o $end
$var wire 1 n38 hb_rwds_i $end
$var wire 1 n39 hb_rwds_o $end
$var wire 1 n40 hb_rwds_oen $end
$var wire 6 n41 latency_cycles $end
$var wire 3 n42 read_cnt_r $end
$var wire 1 n43 read_op $end
$var wire 1 n44 read_timeout_o $end
$var wire 1 n45 read_timeout_r $end
$var wire 1 n46 ready_o $end
$var wire 1 n47 reg_access $end
$var wire 1 n48 regspace_i $end
$var wire 1 n49 rst_i $end
$var wire 1 n50 rwds_2x_latency_r $end
$var wire 1 n51 rwds_r $end
$var wire 4 n52 sel_i $end
$var wire 4 n53 sel_r $end
$var wire 4 n54 tacc_i $end
$var wire 4 n55 tacc_r $end
$var wire 4 n56 tcsh_i $end
$var wire 4 n57 tcsh_r $end
$var wire 4 n58 tpost_i $end
$var wire 4 n59 tpost_r $end
$var wire 4 n60 tpre_i $end
$var wire 4 n61 tpre_r $end
$var wire 5 n62 trmax_i $end
$var wire 5 n63 trmax_r $end
$var wire 1 n64 valid_i $end
$var wire 1 n65 valid_r $end
$var wire 1 n66 valid_start $end
$var wire 1 n67 wren_i $end
$upscope $end
$enddefinitions $end
#0
1!
b00000000000000000000000000000000 t
b00000000 n0
b00000000 n1
b00000000 n2
b00000000 n3
b00000000 n4
b00000000 n5
b000000000000000000000000000000000000000000000000 n6
b00000000000000000000000000000000 n7
b0 n8
b000 n9
b0 n10
b0 n11
b0 n12
b100000 n13
b00000000000000000000000000000000 n14
b00000000000000000000000000000000 n15
b00000000 n16
b00000000 n17
b00000000 n18
b00000000 n19
b00000000000000000000000000000000 n20
b00000000 n21
b00000000 n22
b00000000 n23
b00000000 n24
b00000000000000000000000000000000 n25
b0 n26
b0 n27
b0 n28
b0 n29
b0 n30
b0 n31
b1 n32
b1 n33
b00000000 n34
b00000000 n35
b0 n36
b1 n37
b0 n38
b0 n39
b0 n40
b111101 n41
b000 n42
b0 n43
b0 n44
b0 n45
b1 n46
b0 n47
b0 n48
b1 n49
b0 n50
b0 n51
b0000 n52
b0000 n53
b0000 n54
b0000 n55
b0000 n56
b0000 n57
b0000 n58
b0000 n59
b0000 n60
b0000 n61
b00000 n62
b00001 n63
b0 n64
b0 n65
b0 n66
b0 n67
#5
#10
1!
b00000000000000000000000000000001 t
b00000000 n0
b00000000 n1
b00000000 n2
b00000000 n3
b00000000 n4
b00000000 n5
b000000000000000000000000000000000000000000000000 n6
b00000000000000000000000000000000 n7
b0 n8
b000 n9
b0 n10
b0 n11
b1 n12
b000100 n13
b00000000000000000000000000000000 n14
b00000000000000000000000000000000 n15
b00000000 n16
b00000000 n17
b00000000 n18
b00000000 n19
b00000000000000000000000000000000 n20
b00000000 n21
b00000000 n22
b00000000 n23
b00000000 n24
b00000000000000000000000000000000 n25
b0 n26
b1 n27
b1 n28
b0 n29
b1 n30
b0 n31
b1 n32
b1 n33
b00000000 n34
b00000000 n35
b0 n36
b1 n37
b0 n38
b0 n39
b0 n40
b010101 n41
b000 n42
b0 n43
b0 n44
b0 n45
b1 n46
b0 n47
b0 n48
b1 n49
b0 n50
b0 n51
b0000 n52
b0000 n53
b0000 n54
b0110 n55
b0000 n56
b0100 n57
b0000 n58
b0100 n59
b0000 n60
b0100 n61
b00000 n62
b01000 n63
b0 n64
b0 n65
b0 n66
b0 n67
#15
#20
1!
b00000000000000000000000000000010 t
b00000000 n0
b00000000 n1
b00000000 n2
b00000000 n3
b00000000 n4
b00000000 n5
b000000000000000000000000000000000000000000000000 n6
b00000000000000000000000000000000 n7
b0 n8
b000 n9
b0 n10
b0 n11
b0 n12
b000100 n13
b00000000000000000000000000000000 n14
b00000000000000000000000000000000 n15
b00000000 n16
b00000000 n17
b00000000 n18
b00000000 n19
b00000000000000000000000000000000 n20
b00000000 n21
b00000000 n22
b00000000 n23
b00000000 n24
b00000000000000000000000000000000 n25
b0 n26
b1 n27
b1 n28
b0 n29
b1 n30
b0 n31
b1 n32
b1 n33
b00000000 n34
b00000000 n35
b0 n36
b0 n37
b0 n38
b0 n39
b0 n40
b010101 n41
b000 n42
b0 n43
b0 n44
b0 n45
b1 n46
b0 n47
b0 n48
b0 n49
b1 n50
b0 n51
b0000 n52
b0000 n53
b0000 n54
b0110 n55
b0000 n56
b0100 n57
b0000 n58
b0100 n59
b0000 n60
b0100 n61
b00000 n62
b01000 n63
b0 n64
b0 n65
b0 n66
b0 n67
#25
#30
1!
b00000000000000000000000000000011 t
b00000000 n0
b00000000 n1
b00000000 n2
b00000000 n3
b00000000 n4
b00000000 n5
b000000000000000000000000000000000000000000000000 n6
b00000000000000000000000000000000 n7
b0 n8
b000 n9
b0 n10
b0 n11
b1 n12
b000011 n13
b00000000000000000000000000000000 n14
b00000000000000000000000000000000 n15
b00000000 n16
b00000000 n17
b00000000 n18
b00000000 n19
b00000000000000000000000000000000 n20
b00000000 n21
b00000000 n22
b00000000 n23
b00000000 n24
b00000000000000000000000000000000 n25
b0 n26
b1 n27
b1 n28
b0 n29
b1 n30
b0 n31
b1 n32
b1 n33
b00000000 n34
b00000000 n35
b0 n36
b0 n37
b0 n38
b0 n39
b0 n40
b010101 n41
b000 n42
b0 n43
b0 n44
b0 n45
b1 n46
b0 n47
b0 n48
b0 n49
b1 n50
b0 n51
b0000 n52
b0000 n53
b0000 n54
b0110 n55
b0000 n56
b0100 n57
b0000 n58
b0100 n59
b0000 n60
b0100 n61
b00000 n62
b01000 n63
b0 n64
b0 n65
b0 n66
b0 n67
#35
#40
1!
b00000000000000000000000000000100 t
b00000000 n0
b00000000 n1
b00000000 n2
b00000000 n3
b00000000 n4
b00000000 n5
b000000000000000000000000000000000000000000000000 n6
b00000000000000000000000000000000 n7
b0 n8
b000 n9
b0 n10
b0 n11
b0 n12
b000011 n13
b00000000000000000000000000000000 n14
b00000000000000000000000000000000 n15
b00000000 n16
b00000000 n17
b00000000 n18
b00000000 n19
b00000000000000000000000000000000 n20
b00000000 n21
b00000000 n22
b00000000 n23
b00000000 n24
b00000000000000000000000000000000 n25
b0 n26
b1 n27
b1 n28
b0 n29
b1 n30
b0 n31
b1 n32
b1 n33
b00000000 n34
b00000000 n35
b0 n36
b0 n37
b0 n38
b0 n39
b0 n40
b010101 n41
b000 n42
b0 n43
b0 n44
b0 n45
b1 n46
b0 n47
b0 n48
b0 n49
b1 n50
b0 n51
b0000 n52
b0000 n53
b0000 n54
b0110 n55
b0000 n56
b0100 n57
b0000 n58
b0100 n59
b0000 n60
b0100 n61
b00000 n62
b01000 n63
b0 n64
b0 n65
b0 n66
b0 n67
#45
#50
1!
b00000000000000000000000000000101 t
b00000000 n0
b00000000 n1
b00000000 n2
b00000000 n3
b00000000 n4
b00000000 n5
b000000000000000000000000000000000000000000000000 n6
b00000000000000000000000000000000 n7
b0 n8
b000 n9
b0 n10
b0 n11
b1 n12
b000010 n13
b00000000000000000000000000000000 n14
b00000000000000000000000000000000 n15
b00000000 n16
b00000000 n17
b00000000 n18
b00000000 n19
b00000000000000000000000000000000 n20
b00000000 n21
b00000000 n22
b00000000 n23
b00000000 n24
b00000000000000000000000000000000 n25
b0 n26
b1 n27
b1 n28
b0 n29
b1 n30
b0 n31
b1 n32
b1 n33
b00000000 n34
b00000000 n35
b0 n36
b0 n37
b0 n38
b0 n39
b0 n40
b010101 n41
b000 n42
b0 n43
b0 n44
b0 n45
b1 n46
b0 n47
b0 n48
b0 n49
b1 n50
b0 n51
b0000 n52
b0000 n53
b0000 n54
b0110 n55
b0000 n56
b0100 n57
b0000 n58
b0100 n59
b0000 n60
b0100 n61
b00000 n62
b01000 n63
b0 n64
b0 n65
b0 n66
b0 n67
#55
#60
1!
b00000000000000000000000000000110 t
b00000000 n0
b00000000 n1
b00000000 n2
b00000000 n3
b00000000 n4
b00000000 n5
b000000000000000000000000000000000000000000000000 n6
b00000000000000000000000000000000 n7
b0 n8
b000 n9
b0 n10
b0 n11
b0 n12
b000010 n13
b00000000000000000000000000000000 n14
b00000000000000000000000000000000 n15
b00000000 n16
b00000000 n17
b00000000 n18
b00000000 n19
b00000000000000000000000000000000 n20
b00000000 n21
b00000000 n22
b00000000 n23
b00000000 n24
b00000000000000000000000000000000 n25
b0 n26
b1 n27
b1 n28
b0 n29
b1 n30
b0 n31
b1 n32
b1 n33
b00000000 n34
b00000000 n35
b0 n36
b0 n37
b0 n38
b0 n39
b0 n40
b010101 n41
b000 n42
b0 n43
b0 n44
b0 n45
b1 n46
b0 n47
b0 n48
b0 n49
b1 n50
b0 n51
b0000 n52
b0000 n53
b0000 n54
b0110 n55
b0000 n56
b0100 n57
b0000 n58
b0100 n59
b0000 n60
b0100 n61
b00000 n62
b01000 n63
b0 n64
b0 n65
b0 n66
b0 n67
#65
#70
1!
b00000000000000000000000000000111 t
b00000000 n0
b00000000 n1
b00000000 n2
b00000000 n3
b00000000 n4
b00000000 n5
b000000000000000000000000000000000000000000000000 n6
b00000000000000000000000000000000 n7
b0 n8
b000 n9
b0 n10
b0 n11
b1 n12
b000001 n13
b00000000000000000000000000000000 n14
b00000000000000000000000000000000 n15
b00000000 n16
b00000000 n17
b00000000 n18
b00000000 n19
b00000000000000000000000000000000 n20
b00000000 n21
b00000000 n22
b00000000 n23
b00000000 n24
b00000000000000000000000000000000 n25
b0 n26
b1 n27
b1 n28
b0 n29
b1 n30
b0 n31
b1 n32
b1 n33
b00000000 n34
b00000000 n35
b0 n36
b0 n37
b0 n38
b0 n39
b0 n40
b010101 n41
b000 n42
b0 n43
b0 n44
b0 n45
b1 n46
b0 n47
b0 n48
b0 n49
b1 n50
b0 n51
b0000 n52
b0000 n53
b0000 n54
b0110 n55
b0000 n56
b0100 n57
b0000 n58
b0100 n59
b0000 n60
b0100 n61
b00000 n62
b01000 n63
b0 n64
b0 n65
b0 n66
b0 n67
#75
#80
1!
b00000000000000000000000000001000 t
b00000000 n0
b00000000 n1
b00000000 n2
b00000000 n3
b00000000 n4
b00000000 n5
b000000000000000000000000000000000000000000000000 n6
b10000000000000000000000000000100 n7
b0 n8
b000 n9
b0 n10
b0 n11
b0 n12
b000001 n13
b01111000000100100011010001010110 n14
b00000000000000000000000000000000 n15
b00000000 n16
b00000000 n17
b00000000 n18
b00000000 n19
b00000000000000000000000000000000 n20
b00000000 n21
b00000000 n22
b00000000 n23
b00000000 n24
b00000000000000000000000000000000 n25
b0 n26
b1 n27
b1 n28
b0 n29
b1 n30
b0 n31
b1 n32
b1 n33
b00000000 n34
b00000000 n35
b0 n36
b0 n37
b0 n38
b0 n39
b0 n40
b010101 n41
b000 n42
b0 n43
b0 n44
b0 n45
b1 n46
b0 n47
b1 n48
b0 n49
b1 n50
b0 n51
b1010 n52
b0000 n53
b0000 n54
b0110 n55
b0000 n56
b0100 n57
b0000 n58
b0100 n59
b0000 n60
b0100 n61
b00000 n62
b01000 n63
b1 n64
b0 n65
b1 n66
b1 n67
#85
#90
1!
b00000000000000000000000000001001 t
b00000100 n0
b00000000 n1
b00000000 n2
b00000000 n3
b00000000 n4
b01110000 n5
b011100000000000000000000000000000000000000000100 n6
b00000000000000000000000000000000 n7
b0 n8
b000 n9
b1 n10
b0 n11
b1 n12
b000000 n13
b00000000000000000000000000000000 n14
b00000000000000000000000000000000 n15
b00000000 n16
b00000000 n17
b00000000 n18
b00000000 n19
b00000000000000000000000000000000 n20
b01010110 n21
b00110100 n22
b00010010 n23
b01111000 n24
b01111000000100100011010001010110 n25
b0 n26
b1 n27
b1 n28
b0 n29
b1 n30
b0 n31
b1 n32
b1 n33
b00000000 n34
b00000000 n35
b0 n36
b0 n37
b0 n38
b0 n39
b0 n40
b010101 n41
b000 n42
b0 n43
b0 n44
b0 n45
b0 n46
b1 n47
b0 n48
b0 n49
b1 n50
b0 n51
b0000 n52
b1010 n53
b0000 n54
b0110 n55
b0000 n56
b0100 n57
b0000 n58
b0100 n59
b0000 n60
b0100 n61
b00000 n62
b01000 n63
b0 n64
b1 n65
b0 n66
b0 n67
#95
#100
1!
b00000000000000000000000000001010 t
b00000100 n0
b00000000 n1
b00000000 n2
b00000000 n3
b00000000 n4
b01110000 n5
b011100000000000000000000000000000000000000000100 n6
b00000000000000000000000000000000 n7
b0 n8
b000 n9
b1 n10
b0 n11
b0 n12
b000000 n13
b00000000000000000000000000000000 n14
b00000000000000000000000000000000 n15
b00000000 n16
b00000000 n17
b00000000 n18
b00000000 n19
b00000000000000000000000000000000 n20
b01010110 n21
b00110100 n22
b00010010 n23
b01111000 n24
b01111000000100100011010001010110 n25
b1 n26
b1 n27
b1 n28
b1 n29
b1 n30
b0 n31
b1 n32
b1 n33
b00000000 n34
b00000000 n35
b0 n36
b0 n37
b0 n38
b0 n39
b0 n40
b010101 n41
b000 n42
b0 n43
b0 n44
b0 n45
b0 n46
b1 n47
b1 n48
b0 n49
b1 n50
b0 n51
b1000 n52
b1010 n53
b0100 n54
b0110 n55
b0110 n56
b0100 n57
b1111 n58
b0100 n59
b1111 n60
b0100 n61
b00100 n62
b01000 n63
b1 n64
b1 n65
b0 n66
b0 n67
#105
#110
1!
b00000000000000000000000000001011 t
b00000100 n0
b00000000 n1
b00000000 n2
b00000000 n3
b00000000 n4
b01110000 n5
b011100000000000000000000000000000000000000000100 n6
b00000000000000000000000000000000 n7
b0 n8
b001 n9
b1 n10
b0 n11
b1 n12
b001111 n13
b00000000000000000000000000000000 n14
b00000000000000000000000000000000 n15
b00000000 n16
b00000000 n17
b00000000 n18
b00000000 n19
b00000000000000000000000000000000 n20
b01010110 n21
b00110100 n22
b00010010 n23
b01111000 n24
b01111000000100100011010001010110 n25
b0 n26
b1 n27
b1 n28
b0 n29
b1 n30
b0 n31
b1 n32
b0 n33
b00000000 n34
b00000000 n35
b0 n36
b0 n37
b0 n38
b0 n39
b0 n40
b001101 n41
b000 n42
b0 n43
b0 n44
b0 n45
b0 n46
b1 n47
b0 n48
b0 n49
b1 n50
b0 n51
b0000 n52
b1010 n53
b0000 n54
b0100 n55
b0000 n56
b0110 n57
b0000 n58
b1111 n59
b0000 n60
b1111 n61
b00000 n62
b00100 n63
b0 n64
b1 n65
b0 n66
b0 n67
#115
#120
1!
b00000000000000000000000000001100 t
b00000100 n0
b00000000 n1
b00000000 n2
b00000000 n3
b00000000 n4
b01110000 n5
b011100000000000000000000000000000000000000000100 n6
b00000000000000000000000000000000 n7
b0 n8
b001 n9
b1 n10
b0 n11
b0 n12
b001111 n13
b00000000000000000000000000000000 n14
b00000000000000000000000000000000 n15
b00000000 n16
b00000000 n17
b00000000 n18
b00000000 n19
b00000000000000000000000000000000 n20
b01010110 n21
b00110100 n22
b00010010 n23
b01111000 n24
b01111000000100100011010001010110 n25
b0 n26
b1 n27
b1 n28
b0 n29
b1 n30
b0 n31
b1 n32
b0 n33
b00000000 n34
b00000000 n35
b0 n36
b0 n37
b0 n38
b0 n39
b0 n40
b001101 n41
b000 n42
b0 n43
b0 n44
b0 n45
b0 n46
b1 n47
b0 n48
b0 n49
b1 n50
b0 n51
b0000 n52
b1010 n53
b0000 n54
b0100 n55
b0000 n56
b0110 n57
b0000 n58
b1111 n59
b0000 n60
b1111 n61
b00000 n62
b00100 n63
b0 n64
b1 n65
b0 n66
b0 n67
#125
#130
1!
b00000000000000000000000000001101 t
b00000100 n0
b00000000 n1
b00000000 n2
b00000000 n3
b00000000 n4
b01110000 n5
b011100000000000000000000000000000000000000000100 n6
b00000000000000000000000000000000 n7
b0 n8
b001 n9
b1 n10
b0 n11
b1 n12
b001110 n13
b00000000000000000000000000000000 n14
b00000000000000000000000000000000 n15
b00000000 n16
b00000000 n17
b00000000 n18
b00000000 n19
b00000000000000000000000000000000 n20
b01010110 n21
b00110100 n22
b00010010 n23
b01111000 n24
b01111000000100100011010001010110 n25
b0 n26
b1 n27
b1 n28
b0 n29
b1 n30
b0 n31
b1 n32
b0 n33
b00000000 n34
b00000000 n35
b0 n36
b0 n37
b0 n38
b0 n39
b0 n40
b001101 n41
b000 n42
b0 n43
b0 n44
b0 n45
b0 n46
b1 n47
b0 n48
b0 n49
b1 n50
b0 n51
b0000 n52
b1010 n53
b0000 n54
b0100 n55
b0000 n56
b0110 n57
b0000 n58
b1111 n59
b0000 n60
b1111 n61
b00000 n62
b00100 n63
b0 n64
b0 n65
b0 n66
b0 n67
#135
#140
1!
b00000000000000000000000000001110 t
b00000100 n0
b00000000 n1
b00000000 n2
b00000000 n3
b00000000 n4
b01110000 n5
b011100000000000000000000000000000000000000000100 n6
b00000000000000000000000000000000 n7
b0 n8
b001 n9
b1 n10
b0 n11
b0 n12
b001110 n13
b00000000000000000000000000000000 n14
b00000000000000000000000000000000 n15
b00000000 n16
b00000000 n17
b00000000 n18
b00000000 n19
b00000000000000000000000000000000 n20
b01010110 n21
b00110100 n22
b00010010 n23
b01111000 n24
b01111000000100100011010001010110 n25
b0 n26
b1 n27
b1 n28
b0 n29
b1 n30
b0 n31
b1 n32
b0 n33
b00000000 n34
b00000000 n35
b0 n36
b0 n37
b0 n38
b0 n39
b0 n40
b001101 n41
b000 n42
b0 n43
b0 n44
b0 n45
b0 n46
b1 n47
b0 n48
b0 n49
b1 n50
b0 n51
b0000 n52
b1010 n53
b0000 n54
b0100 n55
b0000 n56
b0110 n57
b0000 n58
b1111 n59
b0000 n60
b1111 n61
b00000 n62
b00100 n63
b0 n64
b0 n65
b0 n66
b0 n67
#145
#150
1!
b00000000000000000000000000001111 t
b00000100 n0
b00000000 n1
b00000000 n2
b00000000 n3
b00000000 n4
b01110000 n5
b011100000000000000000000000000000000000000000100 n6
b00000000000000000000000000000000 n7
b0 n8
b001 n9
b1 n10
b0 n11
b1 n12
b001101 n13
b00000000000000000000000000000000 n14
b00000000000000000000000000000000 n15
b00000000 n16
b00000000 n17
b00000000 n18
b00000000 n19
b00000000000000000000000000000000 n20
b01010110 n21
b00110100 n22
b00010010 n23
b01111000 n24
b01111000000100100011010001010110 n25
b0 n26
b1 n27
b1 n28
b0 n29
b1 n30
b0 n31
b1 n32
b0 n33
b00000000 n34
b00000000 n35
b0 n36
b0 n37
b1 n38
b0 n39
b0 n40
b001101 n41
b000 n42
b0 n43
b0 n44
b0 n45
b0 n46
b1 n47
b0 n48
b0 n49
b1 n50
b0 n51
b0000 n52
b1010 n53
b0000 n54
b0100 n55
b0000 n56
b0110 n57
b0000 n58
b1111 n59
b0000 n60
b1111 n61
b00000 n62
b00100 n63
b0 n64
b0 n65
b0 n66
b0 n67
#155
#160
1!
b00000000000000000000000000010000 t
b00000100 n0
b00000000 n1
b00000000 n2
b00000000 n3
b00000000 n4
b01110000 n5
b011100000000000000000000000000000000000000000100 n6
b00000000000000000000000000000000 n7
b0 n8
b001 n9
b1 n10
b0 n11
b0 n12
b001101 n13
b00000000000000000000000000000000 n14
b00000000000000000000000000000000 n15
b00000000 n16
b00000000 n17
b00000000 n18
b00000000 n19
b00000000000000000000000000000000 n20
b01010110 n21
b00110100 n22
b00010010 n23
b01111000 n24
b01111000000100100011010001010110 n25
b0 n26
b1 n27
b1 n28
b1 n29
b1 n30
b0 n31
b1 n32
b0 n33
b00000000 n34
b00000000 n35
b0 n36
b0 n37
b0 n38
b0 n39
b0 n40
b001101 n41
b000 n42
b0 n43
b0 n44
b0 n45
b0 n46
b1 n47
b0 n48
b0 n49
b1 n50
b0 n51
b0000 n52
b1010 n53
b0011 n54
b0100 n55
b0000 n56
b0110 n57
b1111 n58
b1111 n59
b0111 n60
b1111 n61
b11001 n62
b00100 n63
b0 n64
b0 n65
b0 n66
b0 n67
#165
#170
1!
b00000000000000000000000000010001 t
b00000100 n0
b00000000 n1
b00000000 n2
b00000000 n3
b00000000 n4
b01110000 n5
b011100000000000000000000000000000000000000000100 n6
b00000000000000000000000000000000 n7
b0 n8
b001 n9
b1 n10
b0 n11
b1 n12
b001100 n13
b00000000000000000000000000000000 n14
b00000000000000000000000000000000 n15
b00000000 n16
b00000000 n17
b00000000 n18
b00000000 n19
b00000000000000000000000000000000 n20
b01010110 n21
b00110100 n22
b00010010 n23
b01111000 n24
b01111000000100100011010001010110 n25
b0 n26
b1 n27
b1 n28
b0 n29
b1 n30
b0 n31
b1 n32
b0 n33
b00000000 n34
b00000000 n35
b0 n36
b0 n37
b0 n38
b0 n39
b0 n40
b001101 n41
b000 n42
b0 n43
b0 n44
b0 n45
b0 n46
b1 n47
b0 n48
b0 n49
b1 n50
b0 n51
b0000 n52
b1010 n53
b0000 n54
b0100 n55
b0000 n56
b0110 n57
b0000 n58
b1111 n59
b0000 n60
b1111 n61
b00000 n62
b00100 n63
b0 n64
b0 n65
b0 n66
b0 n67
#175
#180
1!
b00000000000000000000000000010010 t
b00000100 n0
b00000000 n1
b00000000 n2
b00000000 n3
b00000000 n4
b01110000 n5
b011100000000000000000000000000000000000000000100 n6
b00000000000000000000000000000000 n7
b0 n8
b001 n9
b1 n10
b0 n11
b0 n12
b001100 n13
b00000000000000000000000000000000 n14
b00000000000000000000000000000000 n15
b00000000 n16
b00000000 n17
b00000000 n18
b00000000 n19
b00000000000000000000000000000000 n20
b01010110 n21
b00110100 n22
b00010010 n23
b01111000 n24
b01111000000100100011010001010110 n25
b0 n26
b1 n27
b1 n28
b0 n29
b1 n30
b0 n31
b1 n32
b0 n33
b00000000 n34
b00000000 n35
b0 n36
b0 n37
b0 n38
b0 n39
b0 n40
b001101 n41
b000 n42
b0 n43
b0 n44
b0 n45
b0 n46
b1 n47
b0 n48
b0 n49
b1 n50
b0 n51
b0000 n52
b1010 n53
b0000 n54
b0100 n55
b0000 n56
b0110 n57
b0001 n58
b1111 n59
b0000 n60
b1111 n61
b00000 n62
b00100 n63
b1 n64
b0 n65
b1 n66
b1 n67
#185
#190
1!
b00000000000000000000000000010011 t
b00000100 n0
b00000000 n1
b00000000 n2
b00000000 n3
b00000000 n4
b01110000 n5
b011100000000000000000000000000000000000000000100 n6
b00000000000000000000000000000000 n7
b0 n8
b001 n9
b1 n10
b0 n11
b1 n12
b001011 n13
b00000000000000000000000000000000 n14
b00000000000000000000000000000000 n15
b00000000 n16
b00000000 n17
b00000000 n18
b00000000 n19
b00000000000000000000000000000000 n20
b01010110 n21
b00110100 n22
b00010010 n23
b01111000 n24
b01111000000100100011010001010110 n25
b0 n26
b1 n27
b1 n28
b0 n29
b1 n30
b0 n31
b1 n32
b0 n33
b00000000 n34
b00000000 n35
b0 n36
b0 n37
b0 n38
b0 n39
b0 n40
b001101 n41
b000 n42
b0 n43
b0 n44
b0 n45
b0 n46
b1 n47
b0 n48
b0 n49
b1 n50
b0 n51
b0000 n52
b1010 n53
b0000 n54
b0100 n55
b0000 n56
b0110 n57
b0000 n58
b1111 n59
b0000 n60
b1111 n61
b00000 n62
b00100 n63
b0 n64
b1 n65
b0 n66
b0 n67
#195
#200
1!
b00000000000000000000000000010100 t
b00000100 n0
b00000000 n1
b00000000 n2
b00000000 n3
b00000000 n4
b01110000 n5
b011100000000000000000000000000000000000000000100 n6
b00000000000000000000000000000000 n7
b0 n8
b001 n9
b1 n10
b0 n11
b0 n12
b001011 n13
b00000000000000000000000000000000 n14
b00000000000000000000000000000000 n15
b00000000 n16
b00000000 n17
b00000000 n18
b00000000 n19
b00000000000000000000000000000000 n20
b01010110 n21
b00110100 n22
b00010010 n23
b01111000 n24
b01111000000100100011010001010110 n25
b1 n26
b1 n27
b1 n28
b1 n29
b1 n30
b0 n31
b1 n32
b0 n33
b00000000 n34
b00000000 n35
b0 n36
b0 n37
b0 n38
b0 n39
b0 n40
b001101 n41
b000 n42
b0 n43
b0 n44
b0 n45
b0 n46
b1 n47
b0 n48
b0 n49
b1 n50
b0 n51
b0000 n52
b1010 n53
b0000 n54
b0100 n55
b0000 n56
b0110 n57
b1101 n58
b1111 n59
b0000 n60
b1111 n61
b00000 n62
b00100 n63
b0 n64
b1 n65
b0 n66
b1 n67
#205
#210
1!
b00000000000000000000000000010101 t
b00000100 n0
b00000000 n1
b00000000 n2
b00000000 n3
b00000000 n4
b01110000 n5
b011100000000000000000000000000000000000000000100 n6
b00000000000000000000000000000000 n7
b0 n8
b001 n9
b1 n10
b0 n11
b1 n12
b001010 n13
b00000000000000000000000000000000 n14
b00000000000000000000000000000000 n15
b00000000 n16
b00000000 n17
b00000000 n18
b00000000 n19
b00000000000000000000000000000000 n20
b01010110 n21
b00110100 n22
b00010010 n23
b01111000 n24
b01111000000100100011010001010110 n25
b0 n26
b1 n27
b1 n28
b0 n29
b1 n30
b0 n31
b1 n32
b0 n33
b00000000 n34
b00000000 n35
b0 n36
b0 n37
b1 n38
b0 n39
b0 n40
b001101 n41
b000 n42
b0 n43
b0 n44
b0 n45
b0 n46
b1 n47
b0 n48
b0 n49
b1 n50
b0 n51
b0000 n52
b1010 n53
b0000 n54
b0100 n55
b0000 n56
b0110 n57
b0000 n58
b1111 n59
b0000 n60
b1111 n61
b00000 n62
b00100 n63
b0 n64
b0 n65
b0 n66
b0 n67
#215
#220
1!
b00000000000000000000000000010110 t
b00000100 n0
b00000000 n1
b00000000 n2
b00000000 n3
b00000000 n4
b01110000 n5
b011100000000000000000000000000000000000000000100 n6
b00000000000000000000000000000000 n7
b0 n8
b001 n9
b1 n10
b0 n11
b0 n12
b001010 n13
b00000000000000000000000000000000 n14
b00000000000000000000000000000000 n15
b00000000 n16
b00000000 n17
b00000000 n18
b00000000 n19
b00000000000000000000000000000000 n20
b01010110 n21
b00110100 n22
b00010010 n23
b01111000 n24
b01111000000100100011010001010110 n25
b0 n26
b1 n27
b1 n28
b0 n29
b1 n30
b0 n31
b1 n32
b0 n33
b00000000 n34
b00000000 n35
b0 n36
b0 n37
b0 n38
b0 n39
b0 n40
b001101 n41
b000 n42
b0 n43
b0 n44
b0 n45
b0 n46
b1 n47
b1 n48
b0 n49
b1 n50
b0 n51
b1000 n52
b1010 n53
b0000 n54
b0100 n55
b0000 n56
b0110 n57
b0001 n58
b1111 n59
b1011 n60
b1111 n61
b00000 n62
b00100 n63
b1 n64
b0 n65
b1 n66
b0 n67
#225
#230
1!
b00000000000000000000000000010111 t
b00000100 n0
b00000000 n1
b00000000 n2
b00000000 n3
b00000000 n4
b01110000 n5
b011100000000000000000000000000000000000000000100 n6
b00000000000000000000000000000000 n7
b0 n8
b001 n9
b1 n10
b0 n11
b1 n12
b001001 n13
b00000000000000000000000000000000 n14
b00000000000000000000000000000000 n15
b00000000 n16
b00000000 n17
b00000000 n18
b00000000 n19
b00000000000000000000000000000000 n20
b01010110 n21
b00110100 n22
b00010010 n23
b01111000 n24
b01111000000100100011010001010110 n25
b0 n26
b1 n27
b1 n28
b0 n29
b1 n30
b0 n31
b1 n32
b0 n33
b00000000 n34
b00000000 n35
b0 n36
b0 n37
b0 n38
b0 n39
b0 n40
b001101 n41
b000 n42
b0 n43
b0 n44
b0 n45
b0 n46
b1 n47
b0 n48
b0 n49
b1 n50
b0 n51
b0000 n52
b1010 n53
b0000 n54
b0100 n55
b0000 n56
b0110 n57
b0000 n58
b1111 n59
b0000 n60
b1111 n61
b00000 n62
b00100 n63
b0 n64
b1 n65
b0 n66
b0 n67
#235
#240
1!
b00000000000000000000000000011000 t
b00000100 n0
b00000000 n1
b00000000 n2
b00000000 n3
b00000000 n4
b01110000 n5
b011100000000000000000000000000000000000000000100 n6
b00000000000000000000000000000000 n7
b0 n8
b001 n9
b1 n10
b0 n11
b0 n12
b001001 n13
b00000000000000000000000000000000 n14
b00000000000000000000000000000000 n15
b00000000 n16
b00000000 n17
b00000000 n18
b00000000 n19
b00000000000000000000000000000000 n20
b01010110 n21
b00110100 n22
b00010010 n23
b01111000 n24
b01111000000100100011010001010110 n25
b1 n26
b1 n27
b1 n28
b1 n29
b1 n30
b0 n31
b1 n32
b0 n33
b00000000 n34
b00000000 n35
b0 n36
b0 n37
b0 n38
b0 n39
b0 n40
b001101 n41
b000 n42
b0 n43
b0 n44
b0 n45
b0 n46
b1 n47
b1 n48
b0 n49
b1 n50
b0 n51
b1000 n52
b1010 n53
b0100 n54
b0100 n55
b0000 n56
b0110 n57
b1111 n58
b1111 n59
b1111 n60
b1111 n61
b00000 n62
b00100 n63
b1 n64
b1 n65
b0 n66
b1 n67
#245
