PreviousResults/wb_hyperram_cover/engine_0/trace16.vcd
$version Generated by Yosys-SMTBMC $end
$timescale 1ns $end
$var integer 32 t smt_step $end
$var event 1 ! smt_clock $end
$scope module wb_hyperram $end
$var wire 1 n0 csr_ack_r $end
$var wire 1 n1 csr_latency_valid $end
$var wire 1 n2 csr_status_valid $end
$var wire 1 n3 csr_tcsh_valid $end
$var wire 1 n4 csr_tpre_tpost_valid $end
$var wire 1 n5 csr_trmax_valid $end
$var wire 1 n6 csr_valid $end
$var wire 1 n7 csr_valid_prev_r $end
$var wire 1 n8 double_latency $end
$var wire 1 n9 f_past_valid $end
$var wire 1 n10 fixed_latency $end
$var wire 1 n11 hb_clk_o $end
$var wire 1 n12 hb_clkn_o $end
$var wire 1 n13 hb_csn_o $end
$var wire 32 n14 hb_data_out $end
$var wire 8 n15 hb_dq_i $end
$var wire 8 n16 hb_dq_o $end
$var wire 1 n17 hb_dq_oen $end
$var wire 1 n18 hb_ram_valid $end
$var wire 1 n19 hb_read_timeout $end
$var wire 1 n20 hb_ready $end
$var wire 1 n21 hb_reg_valid $end
$var wire 1 n22 hb_rst_o $end
$var wire 1 n23 hb_rwds_i $end
$var wire 1 n24 hb_rwds_o $end
$var wire 1 n25 hb_rwds_oen $end
$scope module hram $end
$var wire 8 n26 CA_0 $end
$var wire 8 n27 CA_1 $end
$var wire 8 n28 CA_2 $end
$var wire 8 n29 CA_3 $end
$var wire 8 n30 CA_4 $end
$var wire 8 n31 CA_5 $end
$var wire 48 n32 CA_r $end
$var wire 32 n33 addr_i $end
$var wire 1 n34 bus_clk_r $end
$var wire 3 n35 bus_state_r $end
$var wire 1 n36 busy_r $end
$var wire 1 n37 clk_active $end
$var wire 1 n38 clk_i $end
$var wire 6 n39 cycle_cnt_r $end
$var wire 32 n40 data_i $end
$var wire 32 n41 data_o $end
$var wire 8 n42 datar_0 $end
$var wire 8 n43 datar_1 $end
$var wire 8 n44 datar_2 $end
$var wire 8 n45 datar_3 $end
$var wire 32 n46 datar_r $end
$var wire 8 n47 dataw_0 $end
$var wire 8 n48 dataw_1 $end
$var wire 8 n49 dataw_2 $end
$var wire 8 n50 dataw_3 $end
$var wire 32 n51 dataw_r $end
$var wire 1 n52 double_latency_i $end
$var wire 1 n53 double_latency_r $end
$var wire 1 n54 f_past_valid $end
$var wire 1 n55 fixed_latency_i $end
$var wire 1 n56 fixed_latency_r $end
$var wire 1 n57 hb_clk_o $end
$var wire 1 n58 hb_clkn_o $end
$var wire 1 n59 hb_csn_o $end
$var wire 8 n60 hb_dq_i $end
$var wire 8 n61 hb_dq_o $end
$var wire 1 n62 hb_dq_oen $end
$var wire 1 n63 hb_rst_o $end
$var wire 1 n64 hb_rwds_i $end
$var wire 1 n65 hb_rwds_o $end
$var wire 1 n66 hb_rwds_oen $end
$var wire 6 n67 latency_cycles $end
$var wire 3 n68 read_cnt_r $end
$var wire 1 n69 read_op $end
$var wire 1 n70 read_timeout_o $end
$var wire 1 n71 read_timeout_r $end
$var wire 1 n72 ready_o $end
$var wire 1 n73 reg_access $end
$var wire 1 n74 regspace_i $end
$var wire 1 n75 rst_i $end
$var wire 1 n76 rwds_2x_latency_r $end
$var wire 1 n77 rwds_r $end
$var wire 4 n78 sel_i $end
$var wire 4 n79 sel_r $end
$var wire 4 n80 tacc_i $end
$var wire 4 n81 tacc_r $end
$var wire 4 n82 tcsh_i $end
$var wire 4 n83 tcsh_r $end
$var wire 4 n84 tpost_i $end
$var wire 4 n85 tpost_r $end
$var wire 4 n86 tpre_i $end
$var wire 4 n87 tpre_r $end
$var wire 5 n88 trmax_i $end
$var wire 5 n89 trmax_r $end
$var wire 1 n90 valid_i $end
$var wire 1 n91 valid_r $end
$var wire 1 n92 valid_start $end
$var wire 1 n93 wren_i $end
$upscope $end
$scope module latency_shadow_reg $end
$var wire 1 n94 clk $end
$var wire 6 n95 data_in $end
$var wire 6 n96 data_out $end
$var wire 6 n97 dffreg $end
$var wire 1 n98 rst $end
$var wire 1 n99 wren $end
$upscope $end
$var wire 1 n100 rst_i $end
$var wire 32 n101 sub_address $end
$var wire 4 n102 tacc $end
$var wire 4 n103 tcsh $end
$scope module tcsh_shadow_reg $end
$var wire 1 n104 clk $end
$var wire 4 n105 data_in $end
$var wire 4 n106 data_out $end
$var wire 4 n107 dffreg $end
$var wire 1 n108 rst $end
$var wire 1 n109 wren $end
$upscope $end
$var wire 4 n110 tpost $end
$var wire 4 n111 tpre $end
$scope module tpre_tpost_shadow_reg $end
$var wire 1 n112 clk $end
$var wire 8 n113 data_in $end
$var wire 8 n114 data_out $end
$var wire 8 n115 dffreg $end
$var wire 1 n116 rst $end
$var wire 1 n117 wren $end
$upscope $end
$var wire 5 n118 trmax $end
$scope module trmax_shadow_reg $end
$var wire 1 n119 clk $end
$var wire 5 n120 data_in $end
$var wire 5 n121 data_out $end
$var wire 5 n122 dffreg $end
$var wire 1 n123 rst $end
$var wire 1 n124 wren $end
$upscope $end
$var wire 1 n125 wb_clk_i $end
$var wire 1 n126 wb_rst_i $end
$var wire 2 n127 wb_state $end
$var wire 1 n128 wbs_ack_o $end
$var wire 32 n129 wbs_addr_i $end
$var wire 1 n130 wbs_cyc_i $end
$var wire 32 n131 wbs_dat_i $end
$var wire 32 n132 wbs_dat_o $end
$var wire 4 n133 wbs_sel_i $end
$var wire 1 n134 wbs_stb_i $end
$var wire 1 n135 wbs_we_i $end
$upscope $end
$enddefinitions $end
#0
1!
b00000000000000000000000000000000 t
b0 n0
b0 n1
b0 n2
b0 n3
b0 n4
b0 n5
b0 n6
b0 n7
b0 n8
b0 n9
b0 n10
b0 n11
b1 n12
b1 n13
b00000000000000000000000000000000 n14
b00000000 n15
b00000000 n16
b1 n17
b0 n18
b0 n19
b1 n20
b0 n21
b1 n22
b0 n23
b0 n24
b0 n25
b00000000 n26
b00000000 n27
b00000000 n28
b00000000 n29
b00000000 n30
b00000000 n31
b000000000000000000000000000000000000000000000000 n32
b00000000000000000000000000000000 n33
b0 n34
b010 n35
b0 n36
b1 n37
b0 n38
b100000 n39
b10000000000000000000000000000000 n40
b00000000000000000000000000000000 n41
b00000000 n42
b00000000 n43
b00000000 n44
b00000000 n45
b00000000000000000000000000000000 n46
b00000000 n47
b00000000 n48
b00000000 n49
b00000000 n50
b00000000000000000000000000000000 n51
b0 n52
b0 n53
b0 n54
b0 n55
b0 n56
b0 n57
b1 n58
b1 n59
b00000000 n60
b00000000 n61
b1 n62
b1 n63
b0 n64
b0 n65
b0 n66
b001101 n67
b000 n68
b0 n69
b0 n70
b0 n71
b1 n72
b0 n73
b0 n74
b1 n75
b0 n76
b0 n77
b1000 n78
b0000 n79
b0000 n80
b1000 n81
b0000 n82
b0000 n83
b0000 n84
b0000 n85
b0000 n86
b0000 n87
b00000 n88
b00001 n89
b0 n90
b0 n91
b0 n92
b0 n93
b0 n94
b000000 n95
b000000 n96
b000000 n97
b1 n98
b0 n99
b1 n100
b00000000000000000000000000000000 n101
b0000 n102
b0000 n103
b0 n104
b0000 n105
b0000 n106
b0000 n107
b1 n108
b0 n109
b0000 n110
b0000 n111
b0 n112
b00000000 n113
b00000000 n114
b00000000 n115
b1 n116
b0 n117
b00000 n118
b0 n119
b00000 n120
b00000 n121
b00000 n122
b1 n123
b0 n124
b0 n125
b1 n126
b00 n127
b0 n128
b00000000000000000000000000000000 n129
b0 n130
b10000000000000000000000000000000 n131
b00000000000000000000000000000000 n132
b1000 n133
b0 n134
b0 n135
#5
#10
1!
b00000000000000000000000000000001 t
b0 n0
b0 n1
b0 n2
b0 n3
b0 n4
b0 n5
b0 n6
b0 n7
b1 n8
b1 n9
b1 n10
b0 n11
b1 n12
b1 n13
b00000000000000000000000000000000 n14
b00000000 n15
b00000000 n16
b0 n17
b0 n18
b0 n19
b1 n20
b0 n21
b1 n22
b0 n23
b0 n24
b0 n25
b00000000 n26
b00000000 n27
b00000000 n28
b00000000 n29
b00000000 n30
b00000000 n31
b000000000000000000000000000000000000000000000000 n32
b00000000000000000000000000000000 n33
b0 n34
b000 n35
b0 n36
b0 n37
b1 n38
b000100 n39
b00000000000000000000000000000000 n40
b00000000000000000000000000000000 n41
b00000000 n42
b00000000 n43
b00000000 n44
b00000000 n45
b00000000000000000000000000000000 n46
b00000000 n47
b00000000 n48
b00000000 n49
b00000000 n50
b00000000000000000000000000000000 n51
b1 n52
b1 n53
b1 n54
b1 n55
b1 n56
b0 n57
b1 n58
b1 n59
b00000000 n60
b00000000 n61
b0 n62
b1 n63
b0 n64
b0 n65
b0 n66
b010101 n67
b000 n68
b0 n69
b0 n70
b0 n71
b1 n72
b0 n73
b0 n74
b1 n75
b0 n76
b0 n77
b0000 n78
b0000 n79
b0100 n80
b0110 n81
b0100 n82
b0100 n83
b0110 n84
b0100 n85
b0110 n86
b0100 n87
b10100 n88
b01000 n89
b0 n90
b0 n91
b0 n92
b0 n93
b1 n94
b000000 n95
b110100 n96
b110100 n97
b1 n98
b0 n99
b1 n100
b00000000000000000000000000000000 n101
b0100 n102
b0100 n103
b1 n104
b0000 n105
b0100 n106
b0100 n107
b1 n108
b0 n109
b0110 n110
b0110 n111
b1 n112
b00000000 n113
b01100110 n114
b01100110 n115
b1 n116
b0 n117
b10100 n118
b1 n119
b00000 n120
b10100 n121
b10100 n122
b1 n123
b0 n124
b1 n125
b1 n126
b00 n127
b0 n128
b00000000000000000010000000000000 n129
b0 n130
b00000000000000000000000000000000 n131
b00000000000000000000000000000000 n132
b0000 n133
b0 n134
b0 n135
#15
#20
1!
b00000000000000000000000000000010 t
b0 n0
b0 n1
b0 n2
b0 n3
b0 n4
b0 n5
b0 n6
b0 n7
b1 n8
b1 n9
b1 n10
b0 n11
b1 n12
b1 n13
b00000000000000000000000000000000 n14
b00000000 n15
b00000000 n16
b0 n17
b0 n18
b0 n19
b1 n20
b0 n21
b0 n22
b0 n23
b0 n24
b0 n25
b00000000 n26
b00000000 n27
b00000000 n28
b00000000 n29
b00000000 n30
b00000000 n31
b000000000000000000000000000000000000000000000000 n32
b00000000000000000000000000000000 n33
b0 n34
b000 n35
b0 n36
b0 n37
b0 n38
b000100 n39
b10000000000000000000000000000000 n40
b00000000000000000000000000000000 n41
b00000000 n42
b00000000 n43
b00000000 n44
b00000000 n45
b00000000000000000000000000000000 n46
b00000000 n47
b00000000 n48
b00000000 n49
b00000000 n50
b00000000000000000000000000000000 n51
b1 n52
b1 n53
b1 n54
b1 n55
b1 n56
b0 n57
b1 n58
b1 n59
b00000000 n60
b00000000 n61
b0 n62
b0 n63
b0 n64
b0 n65
b0 n66
b010101 n67
b000 n68
b0 n69
b0 n70
b0 n71
b1 n72
b0 n73
b0 n74
b0 n75
b1 n76
b0 n77
b1000 n78
b0000 n79
b0100 n80
b0110 n81
b0100 n82
b0100 n83
b0110 n84
b0100 n85
b0110 n86
b0100 n87
b10100 n88
b01000 n89
b0 n90
b0 n91
b0 n92
b0 n93
b0 n94
b000000 n95
b110100 n96
b110100 n97
b0 n98
b0 n99
b0 n100
b00000000000000000000000000000000 n101
b0100 n102
b0100 n103
b0 n104
b0000 n105
b0100 n106
b0100 n107
b0 n108
b0 n109
b0110 n110
b0110 n111
b0 n112
b00000000 n113
b01100110 n114
b01100110 n115
b0 n116
b0 n117
b10100 n118
b0 n119
b00000 n120
b10100 n121
b10100 n122
b0 n123
b0 n124
b0 n125
b0 n126
b00 n127
b0 n128
b00000000000000000000000010000000 n129
b0 n130
b10000000000000000000000000000000 n131
b00000000000000000000000000000000 n132
b1000 n133
b0 n134
b0 n135
#25
#30
1!
b00000000000000000000000000000011 t
b0 n0
b0 n1
b0 n2
b0 n3
b0 n4
b0 n5
b0 n6
b0 n7
b1 n8
b1 n9
b1 n10
b0 n11
b1 n12
b1 n13
b00000000000000000000000000000000 n14
b00000000 n15
b00000000 n16
b0 n17
b0 n18
b0 n19
b1 n20
b0 n21
b0 n22
b0 n23
b0 n24
b0 n25
b00000000 n26
b00000000 n27
b00000000 n28
b00000000 n29
b00000000 n30
b00000000 n31
b000000000000000000000000000000000000000000000000 n32
b00000000000000000000000000000000 n33
b0 n34
b000 n35
b0 n36
b0 n37
b1 n38
b000011 n39
b00000000000000000000000000000000 n40
b00000000000000000000000000000000 n41
b00000000 n42
b00000000 n43
b00000000 n44
b00000000 n45
b00000000000000000000000000000000 n46
b00000000 n47
b00000000 n48
b00000000 n49
b00000000 n50
b00000000000000000000000000000000 n51
b1 n52
b1 n53
b1 n54
b1 n55
b1 n56
b0 n57
b1 n58
b1 n59
b00000000 n60
b00000000 n61
b0 n62
b0 n63
b0 n64
b0 n65
b0 n66
b010101 n67
b000 n68
b0 n69
b0 n70
b0 n71
b1 n72
b0 n73
b0 n74
b0 n75
b1 n76
b0 n77
b0000 n78
b0000 n79
b0100 n80
b0110 n81
b0100 n82
b0100 n83
b0110 n84
b0100 n85
b0110 n86
b0100 n87
b10100 n88
b01000 n89
b0 n90
b0 n91
b0 n92
b0 n93
b1 n94
b000000 n95
b110100 n96
b110100 n97
b0 n98
b0 n99
b0 n100
b00000000000000000000000000000000 n101
b0100 n102
b0100 n103
b1 n104
b0000 n105
b0100 n106
b0100 n107
b0 n108
b0 n109
b0110 n110
b0110 n111
b1 n112
b00000000 n113
b01100110 n114
b01100110 n115
b0 n116
b0 n117
b10100 n118
b1 n119
b00000 n120
b10100 n121
b10100 n122
b0 n123
b0 n124
b1 n125
b0 n126
b01 n127
b0 n128
b00000000000000000000000000000000 n129
b1 n130
b00000000000000000000000000000000 n131
b00000000000000000000000000000000 n132
b0000 n133
b1 n134
b0 n135
#35
#40
1!
b00000000000000000000000000000100 t
b0 n0
b0 n1
b0 n2
b0 n3
b1 n4
b0 n5
b1 n6
b0 n7
b1 n8
b1 n9
b1 n10
b0 n11
b1 n12
b1 n13
b00000000000000000000000000000000 n14
b00000000 n15
b00000000 n16
b0 n17
b0 n18
b0 n19
b1 n20
b0 n21
b0 n22
b0 n23
b0 n24
b0 n25
b00000000 n26
b00000000 n27
b00000000 n28
b00000000 n29
b00000000 n30
b00000000 n31
b000000000000000000000000000000000000000000000000 n32
b00000000000000000000000000000100 n33
b0 n34
b000 n35
b0 n36
b0 n37
b0 n38
b000011 n39
b00000000000000000000000000010010 n40
b00000000000000000000000000000000 n41
b00000000 n42
b00000000 n43
b00000000 n44
b00000000 n45
b00000000000000000000000000000000 n46
b00000000 n47
b00000000 n48
b00000000 n49
b00000000 n50
b00000000000000000000000000000000 n51
b1 n52
b1 n53
b1 n54
b1 n55
b1 n56
b0 n57
b1 n58
b1 n59
b00000000 n60
b00000000 n61
b0 n62
b0 n63
b0 n64
b0 n65
b0 n66
b010101 n67
b000 n68
b0 n69
b0 n70
b0 n71
b1 n72
b0 n73
b0 n74
b0 n75
b1 n76
b0 n77
b0001 n78
b0000 n79
b0100 n80
b0110 n81
b0100 n82
b0100 n83
b0110 n84
b0100 n85
b0110 n86
b0100 n87
b10100 n88
b01000 n89
b0 n90
b0 n91
b0 n92
b1 n93
b0 n94
b010010 n95
b110100 n96
b110100 n97
b0 n98
b0 n99
b0 n100
b00000000000000000000000000000100 n101
b0100 n102
b0100 n103
b0 n104
b0010 n105
b0100 n106
b0100 n107
b0 n108
b0 n109
b0110 n110
b0110 n111
b0 n112
b00010010 n113
b01100110 n114
b01100110 n115
b0 n116
b1 n117
b10100 n118
b0 n119
b10010 n120
b10100 n121
b10100 n122
b0 n123
b0 n124
b0 n125
b0 n126
b01 n127
b0 n128
b00110100000000100000000000000100 n129
b1 n130
b00000000000000000000000000010010 n131
b00000000000000000000000000000000 n132
b0001 n133
b1 n134
b1 n135
#45
#50
1!
b00000000000000000000000000000101 t
b1 n0
b0 n1
b0 n2
b0 n3
b1 n4
b0 n5
b1 n6
b1 n7
b1 n8
b1 n9
b1 n10
b0 n11
b1 n12
b1 n13
b00000000000000000000000000000000 n14
b00000000 n15
b00000000 n16
b0 n17
b0 n18
b0 n19
b1 n20
b0 n21
b0 n22
b0 n23
b0 n24
b0 n25
b00000000 n26
b00000000 n27
b00000000 n28
b00000000 n29
b00000000 n30
b00000000 n31
b000000000000000000000000000000000000000000000000 n32
b00000000000000000000000000000100 n33
b0 n34
b000 n35
b0 n36
b0 n37
b1 n38
b000010 n39
b00000000000000000000000000010010 n40
b00000000000000000000000000000000 n41
b00000000 n42
b00000000 n43
b00000000 n44
b00000000 n45
b00000000000000000000000000000000 n46
b00000000 n47
b00000000 n48
b00000000 n49
b00000000 n50
b00000000000000000000000000000000 n51
b1 n52
b1 n53
b1 n54
b1 n55
b1 n56
b0 n57
b1 n58
b1 n59
b00000000 n60
b00000000 n61
b0 n62
b0 n63
b0 n64
b0 n65
b0 n66
b010101 n67
b000 n68
b0 n69
b0 n70
b0 n71
b1 n72
b0 n73
b0 n74
b0 n75
b1 n76
b0 n77
b0001 n78
b0000 n79
b0100 n80
b0110 n81
b0100 n82
b0100 n83
b0010 n84
b0100 n85
b0001 n86
b0100 n87
b10100 n88
b01000 n89
b0 n90
b0 n91
b0 n92
b1 n93
b1 n94
b010010 n95
b110100 n96
b110100 n97
b0 n98
b0 n99
b0 n100
b00000000000000000000000000000100 n101
b0100 n102
b0100 n103
b1 n104
b0010 n105
b0100 n106
b0100 n107
b0 n108
b0 n109
b0010 n110
b0001 n111
b1 n112
b00010010 n113
b00010010 n114
b00010010 n115
b0 n116
b0 n117
b10100 n118
b1 n119
b10010 n120
b10100 n121
b10100 n122
b0 n123
b0 n124
b1 n125
b0 n126
b10 n127
b1 n128
b00110100000000100000000000000100 n129
b1 n130
b00000000000000000000000000010010 n131
b00000000000000000000000000000000 n132
b0001 n133
b1 n134
b1 n135
#55
#60
1!
b00000000000000000000000000000110 t
b1 n0
b0 n1
b0 n2
b0 n3
b1 n4
b0 n5
b1 n6
b1 n7
b1 n8
b1 n9
b1 n10
b0 n11
b1 n12
b1 n13
b00000000000000000000000000000000 n14
b00000000 n15
b00000000 n16
b0 n17
b0 n18
b0 n19
b1 n20
b0 n21
b0 n22
b0 n23
b0 n24
b0 n25
b00000000 n26
b00000000 n27
b00000000 n28
b00000000 n29
b00000000 n30
b00000000 n31
b000000000000000000000000000000000000000000000000 n32
b00000000000000000000000000000100 n33
b0 n34
b000 n35
b0 n36
b0 n37
b0 n38
b000010 n39
b00000000000000000000000000010010 n40
b00000000000000000000000000000000 n41
b00000000 n42
b00000000 n43
b00000000 n44
b00000000 n45
b00000000000000000000000000000000 n46
b00000000 n47
b00000000 n48
b00000000 n49
b00000000 n50
b00000000000000000000000000000000 n51
b1 n52
b1 n53
b1 n54
b1 n55
b1 n56
b0 n57
b1 n58
b1 n59
b00000000 n60
b00000000 n61
b0 n62
b0 n63
b0 n64
b0 n65
b0 n66
b010101 n67
b000 n68
b0 n69
b0 n70
b0 n71
b1 n72
b0 n73
b0 n74
b0 n75
b1 n76
b0 n77
b0001 n78
b0000 n79
b0100 n80
b0110 n81
b0100 n82
b0100 n83
b0010 n84
b0100 n85
b0001 n86
b0100 n87
b10100 n88
b01000 n89
b0 n90
b0 n91
b0 n92
b1 n93
b0 n94
b010010 n95
b110100 n96
b110100 n97
b0 n98
b0 n99
b0 n100
b00000000000000000000000000000100 n101
b0100 n102
b0100 n103
b0 n104
b0010 n105
b0100 n106
b0100 n107
b0 n108
b0 n109
b0010 n110
b0001 n111
b0 n112
b00010010 n113
b00010010 n114
b00010010 n115
b0 n116
b0 n117
b10100 n118
b0 n119
b10010 n120
b10100 n121
b10100 n122
b0 n123
b0 n124
b0 n125
b0 n126
b10 n127
b1 n128
b00110100000000100000000000000100 n129
b1 n130
b00000000000000000000000000010010 n131
b00000000000000000000000000000000 n132
b0001 n133
b1 n134
b1 n135
#65
#70
1!
b00000000000000000000000000000111 t
b1 n0
b0 n1
b0 n2
b0 n3
b0 n4
b0 n5
b0 n6
b1 n7
b1 n8
b1 n9
b1 n10
b0 n11
b1 n12
b1 n13
b00000000000000000000000000000000 n14
b00000000 n15
b00000000 n16
b0 n17
b0 n18
b0 n19
b1 n20
b0 n21
b0 n22
b0 n23
b0 n24
b0 n25
b00000000 n26
b00000000 n27
b00000000 n28
b00000000 n29
b00000000 n30
b00000000 n31
b000000000000000000000000000000000000000000000000 n32
b00000000000000000000000000000000 n33
b0 n34
b000 n35
b0 n36
b0 n37
b1 n38
b000001 n39
b00000000000000000000000000010010 n40
b00000000000000000000000000000000 n41
b00000000 n42
b00000000 n43
b00000000 n44
b00000000 n45
b00000000000000000000000000000000 n46
b00000000 n47
b00000000 n48
b00000000 n49
b00000000 n50
b00000000000000000000000000000000 n51
b1 n52
b1 n53
b1 n54
b1 n55
b1 n56
b0 n57
b1 n58
b1 n59
b00000000 n60
b00000000 n61
b0 n62
b0 n63
b0 n64
b0 n65
b0 n66
b010101 n67
b000 n68
b0 n69
b0 n70
b0 n71
b1 n72
b0 n73
b0 n74
b0 n75
b1 n76
b0 n77
b0001 n78
b0000 n79
b0100 n80
b0110 n81
b0100 n82
b0100 n83
b0010 n84
b0100 n85
b0001 n86
b0100 n87
b10100 n88
b01000 n89
b0 n90
b0 n91
b0 n92
b1 n93
b1 n94
b010010 n95
b110100 n96
b110100 n97
b0 n98
b0 n99
b0 n100
b00000000000000000000000000000000 n101
b0100 n102
b0100 n103
b1 n104
b0010 n105
b0100 n106
b0100 n107
b0 n108
b0 n109
b0010 n110
b0001 n111
b1 n112
b00010010 n113
b00010010 n114
b00010010 n115
b0 n116
b0 n117
b10100 n118
b1 n119
b10010 n120
b10100 n121
b10100 n122
b0 n123
b0 n124
b1 n125
b0 n126
b11 n127
b0 n128
b00110100000000100000000000000100 n129
b1 n130
b00000000000000000000000000010010 n131
b00000000000000000000000000000000 n132
b0001 n133
b0 n134
b1 n135
#75
#80
1!
b00000000000000000000000000001000 t
b1 n0
b0 n1
b0 n2
b0 n3
b0 n4
b0 n5
b0 n6
b1 n7
b1 n8
b1 n9
b1 n10
b0 n11
b1 n12
b1 n13
b00000000000000000000000000000000 n14
b00000000 n15
b00000000 n16
b0 n17
b0 n18
b0 n19
b1 n20
b0 n21
b0 n22
b0 n23
b0 n24
b0 n25
b00000000 n26
b00000000 n27
b00000000 n28
b00000000 n29
b00000000 n30
b00000000 n31
b000000000000000000000000000000000000000000000000 n32
b00000000000000000000000000000000 n33
b0 n34
b000 n35
b0 n36
b0 n37
b0 n38
b000001 n39
b00000000000000000000000000010010 n40
b00000000000000000000000000000000 n41
b00000000 n42
b00000000 n43
b00000000 n44
b00000000 n45
b00000000000000000000000000000000 n46
b00000000 n47
b00000000 n48
b00000000 n49
b00000000 n50
b00000000000000000000000000000000 n51
b1 n52
b1 n53
b1 n54
b1 n55
b1 n56
b0 n57
b1 n58
b1 n59
b00000000 n60
b00000000 n61
b0 n62
b0 n63
b0 n64
b0 n65
b0 n66
b010101 n67
b000 n68
b0 n69
b0 n70
b0 n71
b1 n72
b0 n73
b0 n74
b0 n75
b1 n76
b0 n77
b0001 n78
b0000 n79
b0100 n80
b0110 n81
b0100 n82
b0100 n83
b0010 n84
b0100 n85
b0001 n86
b0100 n87
b10100 n88
b01000 n89
b0 n90
b0 n91
b0 n92
b1 n93
b0 n94
b010010 n95
b110100 n96
b110100 n97
b0 n98
b0 n99
b0 n100
b00000000000000000000000000000000 n101
b0100 n102
b0100 n103
b0 n104
b0010 n105
b0100 n106
b0100 n107
b0 n108
b0 n109
b0010 n110
b0001 n111
b0 n112
b00010010 n113
b00010010 n114
b00010010 n115
b0 n116
b0 n117
b10100 n118
b0 n119
b10010 n120
b10100 n121
b10100 n122
b0 n123
b0 n124
b0 n125
b0 n126
b11 n127
b0 n128
b00110100000000100000000000000100 n129
b1 n130
b00000000000000000000000000010010 n131
b00000000000000000000000000000000 n132
b0001 n133
b0 n134
b1 n135
#85
#90
1!
b00000000000000000000000000001001 t
b0 n0
b0 n1
b0 n2
b0 n3
b1 n4
b0 n5
b1 n6
b0 n7
b1 n8
b1 n9
b1 n10
b0 n11
b1 n12
b1 n13
b00000000000000000000000000000000 n14
b00000000 n15
b00000000 n16
b0 n17
b0 n18
b0 n19
b1 n20
b0 n21
b0 n22
b0 n23
b0 n24
b0 n25
b00000000 n26
b00000000 n27
b00000000 n28
b00000000 n29
b00000000 n30
b00000000 n31
b000000000000000000000000000000000000000000000000 n32
b00000000000000000000000000000100 n33
b0 n34
b000 n35
b0 n36
b0 n37
b1 n38
b000000 n39
b00000000000000000000000000010010 n40
b00000000000000000000000000000000 n41
b00000000 n42
b00000000 n43
b00000000 n44
b00000000 n45
b00000000000000000000000000000000 n46
b00000000 n47
b00000000 n48
b00000000 n49
b00000000 n50
b00000000000000000000000000000000 n51
b1 n52
b1 n53
b1 n54
b1 n55
b1 n56
b0 n57
b1 n58
b1 n59
b00000000 n60
b00000000 n61
b0 n62
b0 n63
b0 n64
b0 n65
b0 n66
b010101 n67
b000 n68
b0 n69
b0 n70
b0 n71
b1 n72
b0 n73
b0 n74
b0 n75
b1 n76
b0 n77
b0001 n78
b0000 n79
b0100 n80
b0110 n81
b0100 n82
b0100 n83
b0010 n84
b0100 n85
b0001 n86
b0100 n87
b10100 n88
b01000 n89
b0 n90
b0 n91
b0 n92
b1 n93
b1 n94
b010010 n95
b110100 n96
b110100 n97
b0 n98
b0 n99
b0 n100
b00000000000000000000000000000100 n101
b0100 n102
b0100 n103
b1 n104
b0010 n105
b0100 n106
b0100 n107
b0 n108
b0 n109
b0010 n110
b0001 n111
b1 n112
b00010010 n113
b00010010 n114
b00010010 n115
b0 n116
b1 n117
b10100 n118
b1 n119
b10010 n120
b10100 n121
b10100 n122
b0 n123
b0 n124
b1 n125
b0 n126
b01 n127
b0 n128
b00110100000000100000000000000100 n129
b1 n130
b00000000000000000000000000010010 n131
b00000000000000000000000000000000 n132
b0001 n133
b1 n134
b1 n135
#95
#100
1!
b00000000000000000000000000001010 t
b0 n0
b0 n1
b0 n2
b0 n3
b0 n4
b0 n5
b0 n6
b0 n7
b1 n8
b1 n9
b1 n10
b0 n11
b1 n12
b1 n13
b00000000000000000000000000000000 n14
b00000000 n15
b00000000 n16
b0 n17
b1 n18
b0 n19
b1 n20
b0 n21
b0 n22
b0 n23
b0 n24
b0 n25
b00000000 n26
b00000000 n27
b00000000 n28
b00000000 n29
b00000000 n30
b00000000 n31
b000000000000000000000000000000000000000000000000 n32
b00000000000000100000000000000011 n33
b0 n34
b000 n35
b0 n36
b0 n37
b0 n38
b000000 n39
b01111000000100100011010001010110 n40
b00000000000000000000000000000000 n41
b00000000 n42
b00000000 n43
b00000000 n44
b00000000 n45
b00000000000000000000000000000000 n46
b00000000 n47
b00000000 n48
b00000000 n49
b00000000 n50
b00000000000000000000000000000000 n51
b1 n52
b1 n53
b1 n54
b1 n55
b1 n56
b0 n57
b1 n58
b1 n59
b00000000 n60
b00000000 n61
b0 n62
b0 n63
b0 n64
b0 n65
b0 n66
b010101 n67
b000 n68
b0 n69
b0 n70
b0 n71
b1 n72
b0 n73
b0 n74
b0 n75
b1 n76
b0 n77
b0110 n78
b0000 n79
b0100 n80
b0110 n81
b0100 n82
b0100 n83
b0010 n84
b0100 n85
b0001 n86
b0100 n87
b10100 n88
b01000 n89
b1 n90
b0 n91
b1 n92
b1 n93
b0 n94
b010110 n95
b110100 n96
b110100 n97
b0 n98
b0 n99
b0 n100
b00000000000000100000000000000011 n101
b0100 n102
b0100 n103
b0 n104
b0110 n105
b0100 n106
b0100 n107
b0 n108
b0 n109
b0010 n110
b0001 n111
b0 n112
b01010110 n113
b00010010 n114
b00010010 n115
b0 n116
b0 n117
b10100 n118
b0 n119
b10110 n120
b10100 n121
b10100 n122
b0 n123
b0 n124
b0 n125
b0 n126
b01 n127
b1 n128
b00110000000000100000000000000011 n129
b1 n130
b01111000000100100011010001010110 n131
b00000000000000000000000000000000 n132
b0110 n133
b1 n134
b1 n135
#105
