hyperram_cover/engine_0/trace13.vcd
$version Generated by Yosys-SMTBMC $end
$timescale 1ns $end
$var integer 32 t smt_step $end
$var event 1 ! smt_clock $end
$scope module hyperram $end
$var wire 48 n0 CA_r $end
$var wire 32 n1 addr_i $end
$var wire 1 n2 bus_clk_r $end
$var wire 3 n3 bus_state_r $end
$var wire 1 n4 busy_r $end
$var wire 1 n5 clk_active $end
$var wire 1 n6 clk_i $end
$var wire 6 n7 cycle_cnt_r $end
$var wire 32 n8 data_i $end
$var wire 32 n9 data_o $end
$var wire 8 n10 datar_0 $end
$var wire 8 n11 datar_1 $end
$var wire 8 n12 datar_2 $end
$var wire 8 n13 datar_3 $end
$var wire 32 n14 datar_r $end
$var wire 32 n15 dataw_r $end
$var wire 1 n16 double_latency_i $end
$var wire 1 n17 double_latency_r $end
$var wire 1 n18 f_past_valid $end
$var wire 1 n19 fixed_latency_i $end
$var wire 1 n20 fixed_latency_r $end
$var wire 1 n21 hb_clk_o $end
$var wire 1 n22 hb_clkn_o $end
$var wire 1 n23 hb_csn_o $end
$var wire 8 n24 hb_data_out $end
$var wire 8 n25 hb_dq_i $end
$var wire 8 n26 hb_dq_o $end
$var wire 1 n27 hb_dq_oen $end
$var wire 1 n28 hb_rstn_o $end
$var wire 1 n29 hb_rwds_i $end
$var wire 1 n30 hb_rwds_o $end
$var wire 1 n31 hb_rwds_oen $end
$var wire 6 n32 latency_cycles $end
$var wire 3 n33 read_cnt_r $end
$var wire 1 n34 read_op $end
$var wire 1 n35 read_timeout_o $end
$var wire 1 n36 read_timeout_r $end
$var wire 1 n37 ready_o $end
$var wire 1 n38 reg_access $end
$var wire 1 n39 regspace_i $end
$var wire 1 n40 rst_i $end
$var wire 1 n41 rwds_2x_latency_r $end
$var wire 1 n42 rwds_r $end
$var wire 4 n43 sel_i $end
$var wire 4 n44 sel_r $end
$var wire 4 n45 tacc_i $end
$var wire 4 n46 tacc_r $end
$var wire 4 n47 tcsh_i $end
$var wire 4 n48 tcsh_r $end
$var wire 4 n49 tpost_i $end
$var wire 4 n50 tpost_r $end
$var wire 4 n51 tpre_i $end
$var wire 4 n52 tpre_r $end
$var wire 5 n53 trmax_i $end
$var wire 5 n54 trmax_r $end
$var wire 1 n55 valid_i $end
$var wire 1 n56 valid_r $end
$var wire 1 n57 valid_start $end
$var wire 1 n58 wren_i $end
$upscope $end
$enddefinitions $end
#0
1!
b00000000000000000000000000000000 t
b000000000000000000000000000000000000000000000000 n0
b00000000000000000000000000000000 n1
b0 n2
b000 n3
b0 n4
b0 n5
b0 n6
b100000 n7
b00000000000000000000000000000000 n8
b00000000000000000000000000000000 n9
b00000000 n10
b00000000 n11
b00000000 n12
b00000000 n13
b00000000000000000000000000000000 n14
b00000000000000000000000000000000 n15
b0 n16
b0 n17
b0 n18
b0 n19
b0 n20
b0 n21
b1 n22
b1 n23
b00000000 n24
b00000000 n25
b00000000 n26
b0 n27
b0 n28
b0 n29
b0 n30
b0 n31
b111101 n32
b000 n33
b0 n34
b0 n35
b0 n36
b1 n37
b0 n38
b0 n39
b1 n40
b0 n41
b0 n42
b0000 n43
b0000 n44
b0000 n45
b0000 n46
b0000 n47
b0000 n48
b0000 n49
b0000 n50
b0000 n51
b0000 n52
b00000 n53
b00000 n54
b0 n55
b0 n56
b0 n57
b0 n58
#5
#10
1!
b00000000000000000000000000000001 t
b000000000000000000000000000000000000000000000000 n0
b00000000000000000000000000000000 n1
b0 n2
b000 n3
b0 n4
b0 n5
b1 n6
b000100 n7
b00000000000000000000000000000000 n8
b00000000000000000000000000000000 n9
b00000000 n10
b00000000 n11
b00000000 n12
b00000000 n13
b00000000000000000000000000000000 n14
b00000000000000000000000000000000 n15
b0 n16
b1 n17
b1 n18
b0 n19
b1 n20
b0 n21
b1 n22
b1 n23
b00000000 n24
b00000000 n25
b00000000 n26
b0 n27
b0 n28
b0 n29
b0 n30
b0 n31
b010101 n32
b000 n33
b0 n34
b0 n35
b0 n36
b1 n37
b0 n38
b0 n39
b1 n40
b0 n41
b0 n42
b0000 n43
b0000 n44
b0000 n45
b0110 n46
b0000 n47
b0100 n48
b0000 n49
b0100 n50
b0000 n51
b0100 n52
b00000 n53
b10100 n54
b0 n55
b0 n56
b0 n57
b0 n58
#15
#20
1!
b00000000000000000000000000000010 t
b000000000000000000000000000000000000000000000000 n0
b10000000000000000000000000000100 n1
b0 n2
b000 n3
b0 n4
b0 n5
b0 n6
b000100 n7
b01111000000100100011010001010110 n8
b00000000000000000000000000000000 n9
b00000000 n10
b00000000 n11
b00000000 n12
b00000000 n13
b00000000000000000000000000000000 n14
b00000000000000000000000000000000 n15
b0 n16
b1 n17
b1 n18
b0 n19
b1 n20
b0 n21
b1 n22
b1 n23
b00000000 n24
b00000000 n25
b00000000 n26
b0 n27
b1 n28
b0 n29
b0 n30
b0 n31
b010101 n32
b000 n33
b0 n34
b0 n35
b0 n36
b1 n37
b0 n38
b0 n39
b0 n40
b1 n41
b0 n42
b1010 n43
b0000 n44
b0000 n45
b0110 n46
b0000 n47
b0100 n48
b0000 n49
b0100 n50
b0000 n51
b0100 n52
b00000 n53
b10100 n54
b1 n55
b0 n56
b1 n57
b0 n58
#25
#30
1!
b00000000000000000000000000000011 t
b101100000000000000000000000000000000000000000100 n0
b00000000000000000000000000000000 n1
b0 n2
b000 n3
b1 n4
b0 n5
b1 n6
b000011 n7
b00000000000000000000000000000000 n8
b00000000000000000000000000000000 n9
b00000000 n10
b00000000 n11
b00000000 n12
b00000000 n13
b00000000000000000000000000000000 n14
b01111000000100100011010001010110 n15
b0 n16
b1 n17
b1 n18
b0 n19
b1 n20
b0 n21
b1 n22
b1 n23
b00000000 n24
b00000000 n25
b00000000 n26
b0 n27
b1 n28
b0 n29
b0 n30
b0 n31
b010110 n32
b000 n33
b1 n34
b0 n35
b0 n36
b0 n37
b0 n38
b0 n39
b0 n40
b1 n41
b0 n42
b0000 n43
b1010 n44
b0000 n45
b0110 n46
b0000 n47
b0100 n48
b0000 n49
b0100 n50
b0000 n51
b0100 n52
b00000 n53
b10100 n54
b0 n55
b1 n56
b0 n57
b0 n58
#35
#40
1!
b00000000000000000000000000000100 t
b101100000000000000000000000000000000000000000100 n0
b00000000000000000000000000000000 n1
b0 n2
b000 n3
b1 n4
b0 n5
b0 n6
b000011 n7
b00000000000000000000000000000000 n8
b00000000000000000000000000000000 n9
b00000000 n10
b00000000 n11
b00000000 n12
b00000000 n13
b00000000000000000000000000000000 n14
b01111000000100100011010001010110 n15
b0 n16
b1 n17
b1 n18
b0 n19
b1 n20
b0 n21
b1 n22
b1 n23
b00000000 n24
b00000000 n25
b00000000 n26
b0 n27
b1 n28
b0 n29
b0 n30
b0 n31
b010110 n32
b000 n33
b1 n34
b0 n35
b0 n36
b0 n37
b0 n38
b0 n39
b0 n40
b1 n41
b0 n42
b0000 n43
b1010 n44
b0000 n45
b0110 n46
b0000 n47
b0100 n48
b0000 n49
b0100 n50
b0000 n51
b0100 n52
b00000 n53
b10100 n54
b0 n55
b1 n56
b0 n57
b0 n58
#45
#50
1!
b00000000000000000000000000000101 t
b101100000000000000000000000000000000000000000100 n0
b00000000000000000000000000000000 n1
b0 n2
b000 n3
b1 n4
b0 n5
b1 n6
b000010 n7
b00000000000000000000000000000000 n8
b00000000000000000000000000000000 n9
b00000000 n10
b00000000 n11
b00000000 n12
b00000000 n13
b00000000000000000000000000000000 n14
b01111000000100100011010001010110 n15
b0 n16
b1 n17
b1 n18
b0 n19
b1 n20
b0 n21
b1 n22
b1 n23
b00000000 n24
b00000000 n25
b00000000 n26
b0 n27
b1 n28
b0 n29
b0 n30
b0 n31
b010110 n32
b000 n33
b1 n34
b0 n35
b0 n36
b0 n37
b0 n38
b0 n39
b0 n40
b1 n41
b0 n42
b0000 n43
b1010 n44
b0000 n45
b0110 n46
b0000 n47
b0100 n48
b0000 n49
b0100 n50
b0000 n51
b0100 n52
b00000 n53
b10100 n54
b0 n55
b0 n56
b0 n57
b0 n58
#55
#60
1!
b00000000000000000000000000000110 t
b101100000000000000000000000000000000000000000100 n0
b00000000000000000000000000000000 n1
b0 n2
b000 n3
b1 n4
b0 n5
b0 n6
b000010 n7
b00000000000000000000000000000000 n8
b00000000000000000000000000000000 n9
b00000000 n10
b00000000 n11
b00000000 n12
b00000000 n13
b00000000000000000000000000000000 n14
b01111000000100100011010001010110 n15
b0 n16
b1 n17
b1 n18
b0 n19
b1 n20
b0 n21
b1 n22
b1 n23
b00000000 n24
b00000000 n25
b00000000 n26
b0 n27
b1 n28
b0 n29
b0 n30
b0 n31
b010110 n32
b000 n33
b1 n34
b0 n35
b0 n36
b0 n37
b0 n38
b0 n39
b0 n40
b1 n41
b0 n42
b0000 n43
b1010 n44
b0000 n45
b0110 n46
b0000 n47
b0100 n48
b0000 n49
b0100 n50
b0000 n51
b0100 n52
b00000 n53
b10100 n54
b0 n55
b0 n56
b0 n57
b0 n58
#65
#70
1!
b00000000000000000000000000000111 t
b101100000000000000000000000000000000000000000100 n0
b00000000000000000000000000000000 n1
b0 n2
b000 n3
b1 n4
b0 n5
b1 n6
b000001 n7
b00000000000000000000000000000000 n8
b00000000000000000000000000000000 n9
b00000000 n10
b00000000 n11
b00000000 n12
b00000000 n13
b00000000000000000000000000000000 n14
b01111000000100100011010001010110 n15
b0 n16
b1 n17
b1 n18
b0 n19
b1 n20
b0 n21
b1 n22
b1 n23
b00000000 n24
b00000000 n25
b00000000 n26
b0 n27
b1 n28
b0 n29
b0 n30
b0 n31
b010110 n32
b000 n33
b1 n34
b0 n35
b0 n36
b0 n37
b0 n38
b0 n39
b0 n40
b1 n41
b0 n42
b0000 n43
b1010 n44
b0000 n45
b0110 n46
b0000 n47
b0100 n48
b0000 n49
b0100 n50
b0000 n51
b0100 n52
b00000 n53
b10100 n54
b0 n55
b0 n56
b0 n57
b0 n58
#75
#80
1!
b00000000000000000000000000001000 t
b101100000000000000000000000000000000000000000100 n0
b00000000000000000000000000000000 n1
b0 n2
b000 n3
b1 n4
b0 n5
b0 n6
b000001 n7
b00000000000000000000000000000000 n8
b00000000000000000000000000000000 n9
b00000000 n10
b00000000 n11
b00000000 n12
b00000000 n13
b00000000000000000000000000000000 n14
b01111000000100100011010001010110 n15
b0 n16
b1 n17
b1 n18
b0 n19
b1 n20
b0 n21
b1 n22
b1 n23
b00000000 n24
b00000000 n25
b00000000 n26
b0 n27
b1 n28
b0 n29
b0 n30
b0 n31
b010110 n32
b000 n33
b1 n34
b0 n35
b0 n36
b0 n37
b0 n38
b0 n39
b0 n40
b1 n41
b0 n42
b0000 n43
b1010 n44
b0000 n45
b0110 n46
b0000 n47
b0100 n48
b0000 n49
b0100 n50
b0000 n51
b0100 n52
b00000 n53
b10100 n54
b0 n55
b0 n56
b0 n57
b0 n58
#85
#90
1!
b00000000000000000000000000001001 t
b101100000000000000000000000000000000000000000100 n0
b00000000000000000000000000000000 n1
b0 n2
b000 n3
b1 n4
b0 n5
b1 n6
b000000 n7
b00000000000000000000000000000000 n8
b00000000000000000000000000000000 n9
b00000000 n10
b00000000 n11
b00000000 n12
b00000000 n13
b00000000000000000000000000000000 n14
b01111000000100100011010001010110 n15
b0 n16
b1 n17
b1 n18
b0 n19
b1 n20
b0 n21
b1 n22
b1 n23
b00000000 n24
b00000001 n25
b00000000 n26
b0 n27
b1 n28
b1 n29
b0 n30
b0 n31
b010110 n32
b000 n33
b1 n34
b0 n35
b0 n36
b0 n37
b0 n38
b0 n39
b0 n40
b1 n41
b0 n42
b0000 n43
b1010 n44
b0000 n45
b0110 n46
b0000 n47
b0100 n48
b0000 n49
b0100 n50
b0000 n51
b0100 n52
b00000 n53
b10100 n54
b0 n55
b0 n56
b0 n57
b0 n58
#95
#100
1!
b00000000000000000000000000001010 t
b101100000000000000000000000000000000000000000100 n0
b00000000000000000000000000000000 n1
b0 n2
b000 n3
b1 n4
b0 n5
b0 n6
b000000 n7
b00000000000000000000000000000000 n8
b00000000000000000000000000000000 n9
b00000000 n10
b00000000 n11
b00000000 n12
b00000000 n13
b00000000000000000000000000000000 n14
b01111000000100100011010001010110 n15
b1 n16
b1 n17
b1 n18
b0 n19
b1 n20
b0 n21
b1 n22
b1 n23
b00000000 n24
b00000000 n25
b00000000 n26
b0 n27
b1 n28
b0 n29
b0 n30
b0 n31
b010110 n32
b000 n33
b1 n34
b0 n35
b0 n36
b0 n37
b0 n38
b0 n39
b0 n40
b1 n41
b0 n42
b0000 n43
b1010 n44
b0100 n45
b0110 n46
b0000 n47
b0100 n48
b0000 n49
b0100 n50
b0000 n51
b0100 n52
b00100 n53
b10100 n54
b0 n55
b0 n56
b0 n57
b0 n58
#105
#110
1!
b00000000000000000000000000001011 t
b101100000000000000000000000000000000000000000100 n0
b00000000000000000000000000000000 n1
b0 n2
b001 n3
b1 n4
b0 n5
b1 n6
b000000 n7
b00000000000000000000000000000000 n8
b00000000000000000000000000000000 n9
b00000000 n10
b00000000 n11
b00000000 n12
b00000000 n13
b00000000000000000000000000000000 n14
b01111000000100100011010001010110 n15
b0 n16
b1 n17
b1 n18
b0 n19
b0 n20
b0 n21
b1 n22
b0 n23
b00000000 n24
b00000100 n25
b00000000 n26
b0 n27
b1 n28
b0 n29
b0 n30
b0 n31
b001110 n32
b000 n33
b1 n34
b0 n35
b0 n36
b0 n37
b0 n38
b0 n39
b0 n40
b1 n41
b0 n42
b0000 n43
b1010 n44
b0000 n45
b0100 n46
b0000 n47
b0000 n48
b0000 n49
b0000 n50
b0000 n51
b0000 n52
b00000 n53
b00100 n54
b0 n55
b0 n56
b0 n57
b0 n58
#115
#120
1!
b00000000000000000000000000001100 t
b101100000000000000000000000000000000000000000100 n0
b00000000000000000000000000000000 n1
b0 n2
b001 n3
b1 n4
b0 n5
b0 n6
b000000 n7
b00000000000000000000000000000000 n8
b00000000000000000000000000000000 n9
b00000000 n10
b00000000 n11
b00000000 n12
b00000000 n13
b00000000000000000000000000000000 n14
b01111000000100100011010001010110 n15
b1 n16
b1 n17
b1 n18
b0 n19
b0 n20
b0 n21
b1 n22
b0 n23
b00000000 n24
b00000000 n25
b00000000 n26
b0 n27
b1 n28
b0 n29
b0 n30
b0 n31
b001110 n32
b000 n33
b1 n34
b0 n35
b0 n36
b0 n37
b0 n38
b0 n39
b0 n40
b1 n41
b0 n42
b0000 n43
b1010 n44
b0000 n45
b0100 n46
b0000 n47
b0000 n48
b0011 n49
b0000 n50
b0010 n51
b0000 n52
b00000 n53
b00100 n54
b0 n55
b0 n56
b0 n57
b0 n58
#125
#130
1!
b00000000000000000000000000001101 t
b101100000000000000000000000000000000000000000100 n0
b00000000000000000000000000000000 n1
b0 n2
b010 n3
b1 n4
b1 n5
b1 n6
b000101 n7
b00000000000000000000000000000000 n8
b00000000000000000000000000000000 n9
b00000000 n10
b00000000 n11
b00000000 n12
b00000000 n13
b00000000000000000000000000000000 n14
b01111000000100100011010001010110 n15
b0 n16
b1 n17
b1 n18
b0 n19
b0 n20
b0 n21
b1 n22
b0 n23
b10110000 n24
b01111100 n25
b10110000 n26
b1 n27
b1 n28
b0 n29
b0 n30
b0 n31
b001110 n32
b000 n33
b1 n34
b0 n35
b0 n36
b0 n37
b0 n38
b0 n39
b0 n40
b1 n41
b0 n42
b0000 n43
b1010 n44
b0000 n45
b0100 n46
b0000 n47
b0000 n48
b0000 n49
b0000 n50
b0000 n51
b0000 n52
b00000 n53
b00100 n54
b0 n55
b0 n56
b0 n57
b0 n58
#135
#140
1!
b00000000000000000000000000001110 t
b101100000000000000000000000000000000000000000100 n0
b00000000000000000000000000000000 n1
b1 n2
b010 n3
b1 n4
b1 n5
b0 n6
b000101 n7
b00000000000000000000000000000010 n8
b00000000000000000000000000000000 n9
b00000000 n10
b00000000 n11
b00000000 n12
b00000000 n13
b00000000000000000000000000000000 n14
b01111000000100100011010001010110 n15
b0 n16
b1 n17
b1 n18
b1 n19
b0 n20
b1 n21
b0 n22
b0 n23
b10110000 n24
b00000000 n25
b10110000 n26
b1 n27
b1 n28
b0 n29
b0 n30
b0 n31
b001110 n32
b000 n33
b1 n34
b0 n35
b0 n36
b0 n37
b0 n38
b1 n39
b0 n40
b1 n41
b0 n42
b0000 n43
b1010 n44
b0110 n45
b0100 n46
b0000 n47
b0000 n48
b0000 n49
b0000 n50
b0000 n51
b0000 n52
b10010 n53
b00100 n54
b1 n55
b0 n56
b1 n57
b1 n58
#145
#150
1!
b00000000000000000000000000001111 t
b101100000000000000000000000000000000000000000100 n0
b00000000000000000000000000000000 n1
b1 n2
b010 n3
b1 n4
b1 n5
b1 n6
b000100 n7
b00000000000000000000000000000000 n8
b00000000000000000000000000000000 n9
b00000000 n10
b00000000 n11
b00000000 n12
b00000000 n13
b00000000000000000000000000000000 n14
b01111000000100100011010001010110 n15
b0 n16
b1 n17
b1 n18
b0 n19
b0 n20
b1 n21
b0 n22
b0 n23
b00000000 n24
b01111100 n25
b00000000 n26
b1 n27
b1 n28
b0 n29
b0 n30
b0 n31
b001110 n32
b000 n33
b1 n34
b0 n35
b0 n36
b0 n37
b0 n38
b0 n39
b0 n40
b1 n41
b0 n42
b0000 n43
b1010 n44
b0000 n45
b0100 n46
b0000 n47
b0000 n48
b0000 n49
b0000 n50
b0000 n51
b0000 n52
b00000 n53
b00100 n54
b0 n55
b1 n56
b0 n57
b0 n58
#155
#160
1!
b00000000000000000000000000010000 t
b101100000000000000000000000000000000000000000100 n0
b00000000000000000000000000000000 n1
b0 n2
b010 n3
b1 n4
b1 n5
b0 n6
b000100 n7
b00000000000000000000000000000000 n8
b00000000000000000000000000000000 n9
b00000000 n10
b00000000 n11
b00000000 n12
b00000000 n13
b00000000000000000000000000000000 n14
b01111000000100100011010001010110 n15
b0 n16
b1 n17
b1 n18
b0 n19
b0 n20
b0 n21
b1 n22
b0 n23
b00000000 n24
b00000000 n25
b00000000 n26
b1 n27
b1 n28
b0 n29
b0 n30
b0 n31
b001110 n32
b000 n33
b1 n34
b0 n35
b0 n36
b0 n37
b0 n38
b0 n39
b0 n40
b1 n41
b0 n42
b0000 n43
b1010 n44
b0000 n45
b0100 n46
b0000 n47
b0000 n48
b0000 n49
b0000 n50
b0000 n51
b0000 n52
b00000 n53
b00100 n54
b0 n55
b1 n56
b0 n57
b0 n58
#165
#170
1!
b00000000000000000000000000010001 t
b101100000000000000000000000000000000000000000100 n0
b00000000000000000000000000000000 n1
b0 n2
b010 n3
b1 n4
b1 n5
b1 n6
b000011 n7
b00000000000000000000000000000000 n8
b00000000000000000000000000000000 n9
b00000000 n10
b00000000 n11
b00000000 n12
b00000000 n13
b00000000000000000000000000000000 n14
b01111000000100100011010001010110 n15
b0 n16
b1 n17
b1 n18
b0 n19
b0 n20
b0 n21
b1 n22
b0 n23
b00000000 n24
b01111100 n25
b00000000 n26
b1 n27
b1 n28
b0 n29
b0 n30
b0 n31
b001110 n32
b000 n33
b1 n34
b0 n35
b0 n36
b0 n37
b0 n38
b0 n39
b0 n40
b1 n41
b0 n42
b0000 n43
b1010 n44
b0000 n45
b0100 n46
b0000 n47
b0000 n48
b0000 n49
b0000 n50
b0000 n51
b0000 n52
b00000 n53
b00100 n54
b0 n55
b0 n56
b0 n57
b0 n58
#175
#180
1!
b00000000000000000000000000010010 t
b101100000000000000000000000000000000000000000100 n0
b00000000000000000000000000000000 n1
b1 n2
b010 n3
b1 n4
b1 n5
b0 n6
b000011 n7
b00000000000000000000000000000000 n8
b00000000000000000000000000000000 n9
b00000000 n10
b00000000 n11
b00000000 n12
b00000000 n13
b00000000000000000000000000000000 n14
b01111000000100100011010001010110 n15
b1 n16
b1 n17
b1 n18
b1 n19
b0 n20
b1 n21
b0 n22
b0 n23
b00000000 n24
b00000000 n25
b00000000 n26
b1 n27
b1 n28
b0 n29
b0 n30
b0 n31
b001110 n32
b000 n33
b1 n34
b0 n35
b0 n36
b0 n37
b0 n38
b0 n39
b0 n40
b1 n41
b0 n42
b0000 n43
b1010 n44
b1000 n45
b0100 n46
b0000 n47
b0000 n48
b0000 n49
b0000 n50
b0011 n51
b0000 n52
b10001 n53
b00100 n54
b0 n55
b0 n56
b0 n57
b0 n58
#185
#190
1!
b00000000000000000000000000010011 t
b101100000000000000000000000000000000000000000100 n0
b00000000000000000000000000000000 n1
b1 n2
b010 n3
b1 n4
b1 n5
b1 n6
b000010 n7
b00000000000000000000000000000000 n8
b00000000000000000000000000000000 n9
b00000000 n10
b00000000 n11
b00000000 n12
b00000000 n13
b00000000000000000000000000000000 n14
b01111000000100100011010001010110 n15
b0 n16
b1 n17
b1 n18
b0 n19
b0 n20
b1 n21
b0 n22
b0 n23
b00000000 n24
b11111001 n25
b00000000 n26
b1 n27
b1 n28
b0 n29
b0 n30
b0 n31
b001110 n32
b000 n33
b1 n34
b0 n35
b0 n36
b0 n37
b0 n38
b0 n39
b0 n40
b1 n41
b0 n42
b0000 n43
b1010 n44
b0000 n45
b0100 n46
b0000 n47
b0000 n48
b0000 n49
b0000 n50
b0000 n51
b0000 n52
b00000 n53
b00100 n54
b0 n55
b0 n56
b0 n57
b0 n58
#195
#200
1!
b00000000000000000000000000010100 t
b101100000000000000000000000000000000000000000100 n0
b00000000000000000000000000000000 n1
b0 n2
b010 n3
b1 n4
b1 n5
b0 n6
b000010 n7
b00000000000000000000000000000000 n8
b00000000000000000000000000000000 n9
b00000000 n10
b00000000 n11
b00000000 n12
b00000000 n13
b00000000000000000000000000000000 n14
b01111000000100100011010001010110 n15
b1 n16
b1 n17
b1 n18
b0 n19
b0 n20
b0 n21
b1 n22
b0 n23
b00000000 n24
b00000000 n25
b00000000 n26
b1 n27
b1 n28
b0 n29
b0 n30
b0 n31
b000110 n32
b100 n33
b1 n34
b0 n35
b0 n36
b0 n37
b0 n38
b0 n39
b0 n40
b0 n41
b0 n42
b0000 n43
b1010 n44
b0100 n45
b0100 n46
b0000 n47
b0000 n48
b0011 n49
b0000 n50
b0010 n51
b0000 n52
b00000 n53
b00100 n54
b0 n55
b0 n56
b0 n57
b0 n58
#205
#210
1!
b00000000000000000000000000010101 t
b101100000000000000000000000000000000000000000100 n0
b00000000000000000000000000000000 n1
b0 n2
b010 n3
b1 n4
b1 n5
b1 n6
b000001 n7
b00000000000000000000000000000000 n8
b00000000000000000000000000000000 n9
b00000000 n10
b00000000 n11
b00000000 n12
b00000000 n13
b00000000000000000000000000000000 n14
b01111000000100100011010001010110 n15
b0 n16
b1 n17
b1 n18
b0 n19
b0 n20
b0 n21
b1 n22
b0 n23
b00000000 n24
b01111101 n25
b00000000 n26
b1 n27
b1 n28
b0 n29
b0 n30
b0 n31
b000110 n32
b100 n33
b1 n34
b0 n35
b0 n36
b0 n37
b0 n38
b0 n39
b0 n40
b0 n41
b0 n42
b0000 n43
b1010 n44
b0000 n45
b0100 n46
b0000 n47
b0000 n48
b0000 n49
b0000 n50
b0000 n51
b0000 n52
b00000 n53
b00100 n54
b0 n55
b0 n56
b0 n57
b0 n58
#215
#220
1!
b00000000000000000000000000010110 t
b101100000000000000000000000000000000000000000100 n0
b00000000000000000000000000000000 n1
b1 n2
b010 n3
b1 n4
b1 n5
b0 n6
b000001 n7
b00000000000000000000000000000000 n8
b00000000000000000000000000000000 n9
b00000000 n10
b00000000 n11
b00000000 n12
b00000000 n13
b00000000000000000000000000000000 n14
b01111000000100100011010001010110 n15
b1 n16
b1 n17
b1 n18
b0 n19
b0 n20
b1 n21
b0 n22
b0 n23
b00000000 n24
b00000000 n25
b00000000 n26
b1 n27
b1 n28
b0 n29
b0 n30
b0 n31
b000110 n32
b100 n33
b1 n34
b0 n35
b0 n36
b0 n37
b0 n38
b0 n39
b0 n40
b0 n41
b0 n42
b0000 n43
b1010 n44
b0100 n45
b0100 n46
b0000 n47
b0000 n48
b0011 n49
b0000 n50
b0000 n51
b0000 n52
b00000 n53
b00100 n54
b0 n55
b0 n56
b0 n57
b0 n58
#225
#230
1!
b00000000000000000000000000010111 t
b101100000000000000000000000000000000000000000100 n0
b00000000000000000000000000000000 n1
b1 n2
b010 n3
b1 n4
b1 n5
b1 n6
b000000 n7
b00000000000000000000000000000000 n8
b00000000000000000000000000000000 n9
b00000000 n10
b00000000 n11
b00000000 n12
b00000000 n13
b00000000000000000000000000000000 n14
b01111000000100100011010001010110 n15
b0 n16
b1 n17
b1 n18
b0 n19
b0 n20
b1 n21
b0 n22
b0 n23
b00000100 n24
b01111100 n25
b00000100 n26
b1 n27
b1 n28
b0 n29
b0 n30
b0 n31
b000110 n32
b100 n33
b1 n34
b0 n35
b0 n36
b0 n37
b0 n38
b0 n39
b0 n40
b0 n41
b0 n42
b0000 n43
b1010 n44
b0000 n45
b0100 n46
b0000 n47
b0000 n48
b0000 n49
b0000 n50
b0000 n51
b0000 n52
b00000 n53
b00100 n54
b0 n55
b0 n56
b0 n57
b0 n58
#235
#240
1!
b00000000000000000000000000011000 t
b101100000000000000000000000000000000000000000100 n0
b00000000000000000000000000000000 n1
b0 n2
b010 n3
b1 n4
b1 n5
b0 n6
b000000 n7
b00000000000000000000000000000000 n8
b00000000000000000000000000000000 n9
b00000000 n10
b00000000 n11
b00000000 n12
b00000000 n13
b00000000000000000000000000000000 n14
b01111000000100100011010001010110 n15
b1 n16
b1 n17
b1 n18
b1 n19
b0 n20
b0 n21
b1 n22
b0 n23
b00000100 n24
b00000000 n25
b00000100 n26
b1 n27
b1 n28
b0 n29
b0 n30
b0 n31
b000110 n32
b100 n33
b1 n34
b0 n35
b0 n36
b0 n37
b0 n38
b0 n39
b0 n40
b0 n41
b0 n42
b0000 n43
b1010 n44
b1111 n45
b0100 n46
b0000 n47
b0000 n48
b0101 n49
b0000 n50
b0000 n51
b0000 n52
b00000 n53
b00100 n54
b1 n55
b0 n56
b1 n57
b0 n58
#245
#250
1!
b00000000000000000000000000011001 t
b101100000000000000000000000000000000000000000100 n0
b00000000000000000000000000000000 n1
b0 n2
b011 n3
b1 n4
b1 n5
b1 n6
b000110 n7
b00000000000000000000000000000000 n8
b00000000000000000000000000000000 n9
b00000000 n10
b00000000 n11
b00000000 n12
b00000000 n13
b00000000000000000000000000000000 n14
b01111000000100100011010001010110 n15
b0 n16
b1 n17
b1 n18
b0 n19
b0 n20
b0 n21
b1 n22
b0 n23
b00000000 n24
b01111101 n25
b00000000 n26
b0 n27
b1 n28
b0 n29
b0 n30
b0 n31
b000110 n32
b100 n33
b1 n34
b0 n35
b0 n36
b0 n37
b0 n38
b0 n39
b0 n40
b0 n41
b0 n42
b0000 n43
b1010 n44
b0000 n45
b0100 n46
b0000 n47
b0000 n48
b0000 n49
b0000 n50
b0000 n51
b0000 n52
b00000 n53
b00100 n54
b0 n55
b1 n56
b0 n57
b0 n58
#255
#260
1!
b00000000000000000000000000011010 t
b101100000000000000000000000000000000000000000100 n0
b00000000000000000000000000000000 n1
b1 n2
b011 n3
b1 n4
b1 n5
b0 n6
b000110 n7
b00000000000000000000000000000000 n8
b00000000000000000000000000000000 n9
b00000000 n10
b00000000 n11
b00000000 n12
b00000000 n13
b00000000000000000000000000000000 n14
b01111000000100100011010001010110 n15
b0 n16
b1 n17
b1 n18
b0 n19
b0 n20
b1 n21
b0 n22
b0 n23
b00000000 n24
b00000000 n25
b00000000 n26
b0 n27
b1 n28
b0 n29
b0 n30
b0 n31
b000110 n32
b100 n33
b1 n34
b0 n35
b0 n36
b0 n37
b0 n38
b0 n39
b0 n40
b0 n41
b0 n42
b0000 n43
b1010 n44
b0101 n45
b0100 n46
b0000 n47
b0000 n48
b0011 n49
b0000 n50
b0010 n51
b0000 n52
b00000 n53
b00100 n54
b1 n55
b1 n56
b0 n57
b1 n58
#265
#270
1!
b00000000000000000000000000011011 t
b101100000000000000000000000000000000000000000100 n0
b00000000000000000000000000000000 n1
b1 n2
b011 n3
b1 n4
b1 n5
b1 n6
b000101 n7
b00000000000000000000000000000000 n8
b00000000000000000000000000000000 n9
b00000000 n10
b00000000 n11
b00000000 n12
b00000000 n13
b00000000000000000000000000000000 n14
b01111000000100100011010001010110 n15
b0 n16
b1 n17
b1 n18
b0 n19
b0 n20
b1 n21
b0 n22
b0 n23
b00000000 n24
b01111100 n25
b00000000 n26
b0 n27
b1 n28
b0 n29
b0 n30
b0 n31
b000110 n32
b100 n33
b1 n34
b0 n35
b0 n36
b0 n37
b0 n38
b0 n39
b0 n40
b0 n41
b0 n42
b0000 n43
b1010 n44
b0000 n45
b0100 n46
b0000 n47
b0000 n48
b0000 n49
b0000 n50
b0000 n51
b0000 n52
b00000 n53
b00100 n54
b0 n55
b1 n56
b0 n57
b0 n58
#275
#280
1!
b00000000000000000000000000011100 t
b101100000000000000000000000000000000000000000100 n0
b00000000000000000000000000000000 n1
b0 n2
b011 n3
b1 n4
b1 n5
b0 n6
b000101 n7
b00000000000000000000000000000000 n8
b00000000000000000000000000000000 n9
b00000000 n10
b00000000 n11
b00000000 n12
b00000000 n13
b00000000000000000000000000000000 n14
b01111000000100100011010001010110 n15
b0 n16
b1 n17
b1 n18
b0 n19
b0 n20
b0 n21
b1 n22
b0 n23
b00000000 n24
b00000000 n25
b00000000 n26
b0 n27
b1 n28
b0 n29
b0 n30
b0 n31
b000110 n32
b100 n33
b1 n34
b0 n35
b0 n36
b0 n37
b0 n38
b0 n39
b0 n40
b0 n41
b0 n42
b0000 n43
b1010 n44
b0000 n45
b0100 n46
b0000 n47
b0000 n48
b0000 n49
b0000 n50
b0000 n51
b0000 n52
b00000 n53
b00100 n54
b1 n55
b1 n56
b0 n57
b0 n58
#285
