wb_hyperram_cover/engine_0/trace6.vcd
$version Generated by Yosys-SMTBMC $end
$timescale 1ns $end
$var integer 32 t smt_step $end
$var event 1 ! smt_clock $end
$scope module wb_hyperram $end
$var wire 1 n0 csr_ack_r $end
$var wire 1 n1 csr_latency_valid $end
$var wire 1 n2 csr_status_valid $end
$var wire 1 n3 csr_tcsh_valid $end
$var wire 1 n4 csr_tpre_tpost_valid $end
$var wire 1 n5 csr_trmax_valid $end
$var wire 1 n6 csr_valid $end
$var wire 1 n7 csr_valid_prev_r $end
$var wire 32 n8 data_out $end
$var wire 1 n9 double_latency $end
$var wire 1 n10 f_past_valid $end
$var wire 1 n11 fixed_latency $end
$var wire 1 n12 hb_clk_o $end
$var wire 1 n13 hb_clkn_o $end
$var wire 1 n14 hb_csn_o $end
$var wire 32 n15 hb_data_out $end
$var wire 8 n16 hb_dq_i $end
$var wire 8 n17 hb_dq_o $end
$var wire 1 n18 hb_dq_oen $end
$var wire 1 n19 hb_ram_valid $end
$var wire 1 n20 hb_read_timeout $end
$var wire 1 n21 hb_ready $end
$var wire 1 n22 hb_reg_valid $end
$var wire 1 n23 hb_rstn_o $end
$var wire 1 n24 hb_rwds_i $end
$var wire 1 n25 hb_rwds_o $end
$var wire 1 n26 hb_rwds_oen $end
$var wire 1 n27 hb_valid_prev_r $end
$scope module hram $end
$var wire 48 n28 CA_r $end
$var wire 32 n29 addr_i $end
$var wire 1 n30 bus_clk_r $end
$var wire 3 n31 bus_state_r $end
$var wire 1 n32 busy_r $end
$var wire 1 n33 clk_active $end
$var wire 1 n34 clk_i $end
$var wire 6 n35 cycle_cnt_r $end
$var wire 32 n36 data_i $end
$var wire 32 n37 data_o $end
$var wire 8 n38 datar_0 $end
$var wire 8 n39 datar_1 $end
$var wire 8 n40 datar_2 $end
$var wire 8 n41 datar_3 $end
$var wire 32 n42 datar_r $end
$var wire 32 n43 dataw_r $end
$var wire 1 n44 double_latency_i $end
$var wire 1 n45 double_latency_r $end
$var wire 1 n46 f_past_valid $end
$var wire 1 n47 fixed_latency_i $end
$var wire 1 n48 fixed_latency_r $end
$var wire 1 n49 hb_clk_o $end
$var wire 1 n50 hb_clkn_o $end
$var wire 1 n51 hb_csn_o $end
$var wire 8 n52 hb_data_out $end
$var wire 8 n53 hb_dq_i $end
$var wire 8 n54 hb_dq_o $end
$var wire 1 n55 hb_dq_oen $end
$var wire 1 n56 hb_rstn_o $end
$var wire 1 n57 hb_rwds_i $end
$var wire 1 n58 hb_rwds_o $end
$var wire 1 n59 hb_rwds_oen $end
$var wire 6 n60 latency_cycles $end
$var wire 3 n61 read_cnt_r $end
$var wire 1 n62 read_op $end
$var wire 1 n63 read_timeout_o $end
$var wire 1 n64 read_timeout_r $end
$var wire 1 n65 ready_o $end
$var wire 1 n66 reg_access $end
$var wire 1 n67 regspace_i $end
$var wire 1 n68 rst_i $end
$var wire 1 n69 rwds_2x_latency_r $end
$var wire 1 n70 rwds_r $end
$var wire 4 n71 sel_i $end
$var wire 4 n72 sel_r $end
$var wire 4 n73 tacc_i $end
$var wire 4 n74 tacc_r $end
$var wire 4 n75 tcsh_i $end
$var wire 4 n76 tcsh_r $end
$var wire 4 n77 tpost_i $end
$var wire 4 n78 tpost_r $end
$var wire 4 n79 tpre_i $end
$var wire 4 n80 tpre_r $end
$var wire 5 n81 trmax_i $end
$var wire 5 n82 trmax_r $end
$var wire 1 n83 valid_i $end
$var wire 1 n84 valid_r $end
$var wire 1 n85 valid_start $end
$var wire 1 n86 wren_i $end
$upscope $end
$scope module latency_shadow_reg $end
$var wire 1 n87 clk $end
$var wire 6 n88 data_in $end
$var wire 6 n89 data_out $end
$var wire 6 n90 dffreg $end
$var wire 1 n91 f_past_valid $end
$var wire 1 n92 rst $end
$var wire 1 n93 wren $end
$upscope $end
$var wire 1 n94 rst_i $end
$var wire 32 n95 sub_address $end
$var wire 4 n96 tacc $end
$var wire 4 n97 tcsh $end
$scope module tcsh_shadow_reg $end
$var wire 1 n98 clk $end
$var wire 4 n99 data_in $end
$var wire 4 n100 data_out $end
$var wire 4 n101 dffreg $end
$var wire 1 n102 f_past_valid $end
$var wire 1 n103 rst $end
$var wire 1 n104 wren $end
$upscope $end
$var wire 4 n105 tpost $end
$var wire 4 n106 tpre $end
$scope module tpre_tpost_shadow_reg $end
$var wire 1 n107 clk $end
$var wire 8 n108 data_in $end
$var wire 8 n109 data_out $end
$var wire 8 n110 dffreg $end
$var wire 1 n111 f_past_valid $end
$var wire 1 n112 rst $end
$var wire 1 n113 wren $end
$upscope $end
$var wire 5 n114 trmax $end
$scope module trmax_shadow_reg $end
$var wire 1 n115 clk $end
$var wire 5 n116 data_in $end
$var wire 5 n117 data_out $end
$var wire 5 n118 dffreg $end
$var wire 1 n119 f_past_valid $end
$var wire 1 n120 rst $end
$var wire 1 n121 wren $end
$upscope $end
$var wire 1 n122 wb_clk_i $end
$var wire 1 n123 wb_rst_i $end
$var wire 2 n124 wb_state $end
$var wire 1 n125 wbs_ack_o $end
$var wire 32 n126 wbs_addr_i $end
$var wire 1 n127 wbs_cyc_i $end
$var wire 32 n128 wbs_dat_i $end
$var wire 32 n129 wbs_dat_o $end
$var wire 4 n130 wbs_sel_i $end
$var wire 1 n131 wbs_stb_i $end
$var wire 1 n132 wbs_we_i $end
$upscope $end
$enddefinitions $end
#0
1!
b00000000000000000000000000000000 t
b0 n0
b0 n1
b0 n2
b0 n3
b0 n4
b0 n5
b0 n6
b0 n7
b00000000000000000000000000000000 n8
b0 n9
b0 n10
b0 n11
b0 n12
b1 n13
b1 n14
b00000000000000000000000000000000 n15
b00000000 n16
b00000000 n17
b0 n18
b0 n19
b0 n20
b1 n21
b0 n22
b0 n23
b0 n24
b0 n25
b1 n26
b0 n27
b000000000000000000000000000000000000000000000000 n28
b00000000000000000000000000000000 n29
b0 n30
b010 n31
b0 n32
b1 n33
b0 n34
b100000 n35
b10000000000000000000000000000000 n36
b00000000000000000000000000000000 n37
b00000000 n38
b00000000 n39
b00000000 n40
b00000000 n41
b00000000000000000000000000000000 n42
b00000000000000000000000000000000 n43
b0 n44
b0 n45
b0 n46
b0 n47
b0 n48
b0 n49
b1 n50
b1 n51
b00000000 n52
b00000000 n53
b00000000 n54
b0 n55
b0 n56
b0 n57
b0 n58
b1 n59
b111101 n60
b000 n61
b0 n62
b0 n63
b0 n64
b1 n65
b0 n66
b0 n67
b1 n68
b0 n69
b0 n70
b1000 n71
b0000 n72
b0000 n73
b0000 n74
b0000 n75
b0000 n76
b0000 n77
b0000 n78
b0000 n79
b0000 n80
b00000 n81
b00000 n82
b0 n83
b0 n84
b0 n85
b0 n86
b0 n87
b000000 n88
b000000 n89
b000000 n90
b0 n91
b1 n92
b0 n93
b1 n94
b00000000000000000000000000000000 n95
b0000 n96
b0000 n97
b0 n98
b0000 n99
b0000 n100
b0000 n101
b0 n102
b1 n103
b0 n104
b0000 n105
b0000 n106
b0 n107
b00000000 n108
b00000000 n109
b00000000 n110
b0 n111
b1 n112
b0 n113
b00000 n114
b0 n115
b00000 n116
b00000 n117
b00000 n118
b0 n119
b1 n120
b0 n121
b0 n122
b1 n123
b00 n124
b0 n125
b00000000001000000000000000000000 n126
b0 n127
b10000000000000000000000000000000 n128
b00000000000000000000000000000000 n129
b1000 n130
b0 n131
b0 n132
#5
#10
1!
b00000000000000000000000000000001 t
b0 n0
b0 n1
b0 n2
b0 n3
b0 n4
b0 n5
b0 n6
b0 n7
b00000000000000000000000000000000 n8
b1 n9
b1 n10
b1 n11
b0 n12
b1 n13
b1 n14
b00000000000000000000000000000000 n15
b00000000 n16
b00000000 n17
b1 n18
b0 n19
b0 n20
b1 n21
b0 n22
b0 n23
b0 n24
b0 n25
b1 n26
b0 n27
b000000000000000000000000000000000000000000000000 n28
b00000000000000000000000000000000 n29
b0 n30
b000 n31
b0 n32
b0 n33
b1 n34
b000100 n35
b00000000000000000000000000000000 n36
b00000000000000000000000000000000 n37
b00000000 n38
b00000000 n39
b00000000 n40
b00000000 n41
b00000000000000000000000000000000 n42
b00000000000000000000000000000000 n43
b1 n44
b1 n45
b1 n46
b1 n47
b1 n48
b0 n49
b1 n50
b1 n51
b00000000 n52
b00000000 n53
b00000000 n54
b1 n55
b0 n56
b0 n57
b0 n58
b1 n59
b010101 n60
b000 n61
b0 n62
b0 n63
b0 n64
b1 n65
b0 n66
b0 n67
b1 n68
b0 n69
b0 n70
b0000 n71
b0000 n72
b0110 n73
b0110 n74
b0100 n75
b0100 n76
b0100 n77
b0100 n78
b0100 n79
b0100 n80
b10100 n81
b10100 n82
b0 n83
b0 n84
b0 n85
b0 n86
b1 n87
b000000 n88
b110110 n89
b110110 n90
b1 n91
b1 n92
b0 n93
b1 n94
b00000000000000000000000000000000 n95
b0110 n96
b0100 n97
b1 n98
b0000 n99
b0100 n100
b0100 n101
b1 n102
b1 n103
b0 n104
b0100 n105
b0100 n106
b1 n107
b00000000 n108
b01000100 n109
b01000100 n110
b1 n111
b1 n112
b0 n113
b10100 n114
b1 n115
b00000 n116
b10100 n117
b10100 n118
b1 n119
b1 n120
b0 n121
b1 n122
b1 n123
b00 n124
b0 n125
b00000000000000000000000000000000 n126
b0 n127
b00000000000000000000000000000000 n128
b00000000000000000000000000000000 n129
b0000 n130
b0 n131
b0 n132
#15
#20
1!
b00000000000000000000000000000010 t
b0 n0
b0 n1
b0 n2
b0 n3
b0 n4
b0 n5
b0 n6
b0 n7
b00000000000000000000000000000000 n8
b1 n9
b1 n10
b1 n11
b0 n12
b1 n13
b1 n14
b00000000000000000000000000000000 n15
b00000000 n16
b00000000 n17
b1 n18
b0 n19
b0 n20
b1 n21
b0 n22
b1 n23
b0 n24
b0 n25
b1 n26
b0 n27
b000000000000000000000000000000000000000000000000 n28
b00000000000000000000000000000000 n29
b0 n30
b000 n31
b0 n32
b0 n33
b0 n34
b000100 n35
b10000000000000000000000000000000 n36
b00000000000000000000000000000000 n37
b00000000 n38
b00000000 n39
b00000000 n40
b00000000 n41
b00000000000000000000000000000000 n42
b00000000000000000000000000000000 n43
b1 n44
b1 n45
b1 n46
b1 n47
b1 n48
b0 n49
b1 n50
b1 n51
b00000000 n52
b00000000 n53
b00000000 n54
b1 n55
b1 n56
b0 n57
b0 n58
b1 n59
b010101 n60
b000 n61
b0 n62
b0 n63
b0 n64
b1 n65
b0 n66
b0 n67
b0 n68
b1 n69
b0 n70
b1000 n71
b0000 n72
b0110 n73
b0110 n74
b0100 n75
b0100 n76
b0100 n77
b0100 n78
b0100 n79
b0100 n80
b10100 n81
b10100 n82
b0 n83
b0 n84
b0 n85
b0 n86
b0 n87
b000000 n88
b110110 n89
b110110 n90
b1 n91
b0 n92
b0 n93
b0 n94
b00000000000000000000000000000000 n95
b0110 n96
b0100 n97
b0 n98
b0000 n99
b0100 n100
b0100 n101
b1 n102
b0 n103
b0 n104
b0100 n105
b0100 n106
b0 n107
b00000000 n108
b01000100 n109
b01000100 n110
b1 n111
b0 n112
b0 n113
b10100 n114
b0 n115
b00000 n116
b10100 n117
b10100 n118
b1 n119
b0 n120
b0 n121
b0 n122
b0 n123
b00 n124
b0 n125
b00000000001000000000000000000000 n126
b0 n127
b10000000000000000000000000000000 n128
b00000000000000000000000000000000 n129
b1000 n130
b0 n131
b0 n132
#25
#30
1!
b00000000000000000000000000000011 t
b0 n0
b0 n1
b0 n2
b0 n3
b0 n4
b0 n5
b0 n6
b0 n7
b00000000000000000000000000000000 n8
b1 n9
b1 n10
b1 n11
b0 n12
b1 n13
b1 n14
b00000000000000000000000000000000 n15
b00000000 n16
b00000000 n17
b1 n18
b0 n19
b0 n20
b1 n21
b0 n22
b1 n23
b0 n24
b0 n25
b1 n26
b0 n27
b000000000000000000000000000000000000000000000000 n28
b00000000000000000000000000000000 n29
b0 n30
b000 n31
b0 n32
b0 n33
b1 n34
b000011 n35
b00000000000000000000000000000000 n36
b00000000000000000000000000000000 n37
b00000000 n38
b00000000 n39
b00000000 n40
b00000000 n41
b00000000000000000000000000000000 n42
b00000000000000000000000000000000 n43
b1 n44
b1 n45
b1 n46
b1 n47
b1 n48
b0 n49
b1 n50
b1 n51
b00000000 n52
b00000000 n53
b00000000 n54
b1 n55
b1 n56
b0 n57
b0 n58
b1 n59
b010101 n60
b000 n61
b0 n62
b0 n63
b0 n64
b1 n65
b0 n66
b0 n67
b0 n68
b1 n69
b0 n70
b0000 n71
b0000 n72
b0110 n73
b0110 n74
b0100 n75
b0100 n76
b0100 n77
b0100 n78
b0100 n79
b0100 n80
b10100 n81
b10100 n82
b0 n83
b0 n84
b0 n85
b0 n86
b1 n87
b000000 n88
b110110 n89
b110110 n90
b1 n91
b0 n92
b0 n93
b0 n94
b00000000000000000000000000000000 n95
b0110 n96
b0100 n97
b1 n98
b0000 n99
b0100 n100
b0100 n101
b1 n102
b0 n103
b0 n104
b0100 n105
b0100 n106
b1 n107
b00000000 n108
b01000100 n109
b01000100 n110
b1 n111
b0 n112
b0 n113
b10100 n114
b1 n115
b00000 n116
b10100 n117
b10100 n118
b1 n119
b0 n120
b0 n121
b1 n122
b0 n123
b01 n124
b0 n125
b00000000000000000000000000000000 n126
b1 n127
b00000000000000000000000000000000 n128
b00000000000000000000000000000000 n129
b0000 n130
b1 n131
b0 n132
#35
#40
1!
b00000000000000000000000000000100 t
b0 n0
b0 n1
b0 n2
b0 n3
b1 n4
b0 n5
b1 n6
b0 n7
b00000000000000000000000000000000 n8
b1 n9
b1 n10
b1 n11
b0 n12
b1 n13
b1 n14
b00000000000000000000000000000000 n15
b00000000 n16
b00000000 n17
b1 n18
b0 n19
b0 n20
b1 n21
b0 n22
b1 n23
b0 n24
b0 n25
b1 n26
b0 n27
b000000000000000000000000000000000000000000000000 n28
b00000000000000000000000000000010 n29
b0 n30
b000 n31
b0 n32
b0 n33
b0 n34
b000011 n35
b10000000000000000000000000000000 n36
b00000000000000000000000000000000 n37
b00000000 n38
b00000000 n39
b00000000 n40
b00000000 n41
b00000000000000000000000000000000 n42
b00000000000000000000000000000000 n43
b1 n44
b1 n45
b1 n46
b1 n47
b1 n48
b0 n49
b1 n50
b1 n51
b00000000 n52
b00000000 n53
b00000000 n54
b1 n55
b1 n56
b0 n57
b0 n58
b1 n59
b010101 n60
b000 n61
b0 n62
b0 n63
b0 n64
b1 n65
b0 n66
b0 n67
b0 n68
b1 n69
b0 n70
b0001 n71
b0000 n72
b0110 n73
b0110 n74
b0100 n75
b0100 n76
b0100 n77
b0100 n78
b0100 n79
b0100 n80
b10100 n81
b10100 n82
b0 n83
b0 n84
b0 n85
b1 n86
b0 n87
b000000 n88
b110110 n89
b110110 n90
b1 n91
b0 n92
b0 n93
b0 n94
b00000000000000000000000000000100 n95
b0110 n96
b0100 n97
b0 n98
b0000 n99
b0100 n100
b0100 n101
b1 n102
b0 n103
b0 n104
b0100 n105
b0100 n106
b0 n107
b00000000 n108
b01000100 n109
b01000100 n110
b1 n111
b0 n112
b1 n113
b10100 n114
b0 n115
b00000 n116
b10100 n117
b10100 n118
b1 n119
b0 n120
b0 n121
b0 n122
b0 n123
b01 n124
b0 n125
b00110000110000000000000000000100 n126
b1 n127
b10000000000000000000000000000000 n128
b00000000000000000000000000000000 n129
b0001 n130
b1 n131
b1 n132
#45
#50
1!
b00000000000000000000000000000101 t
b1 n0
b0 n1
b0 n2
b0 n3
b1 n4
b0 n5
b1 n6
b1 n7
b00000000000000000000000000000000 n8
b1 n9
b1 n10
b1 n11
b0 n12
b1 n13
b1 n14
b00000000000000000000000000000000 n15
b00000000 n16
b00000000 n17
b1 n18
b0 n19
b0 n20
b1 n21
b0 n22
b1 n23
b0 n24
b0 n25
b1 n26
b0 n27
b000000000000000000000000000000000000000000000000 n28
b00000000000000000000000000000010 n29
b0 n30
b000 n31
b0 n32
b0 n33
b1 n34
b000010 n35
b10000000000000000000000000000000 n36
b00000000000000000000000000000000 n37
b00000000 n38
b00000000 n39
b00000000 n40
b00000000 n41
b00000000000000000000000000000000 n42
b00000000000000000000000000000000 n43
b1 n44
b1 n45
b1 n46
b1 n47
b1 n48
b0 n49
b1 n50
b1 n51
b00000000 n52
b00000000 n53
b00000000 n54
b1 n55
b1 n56
b0 n57
b0 n58
b1 n59
b010101 n60
b000 n61
b0 n62
b0 n63
b0 n64
b1 n65
b0 n66
b0 n67
b0 n68
b1 n69
b0 n70
b0001 n71
b0000 n72
b0110 n73
b0110 n74
b0100 n75
b0100 n76
b0000 n77
b0100 n78
b0000 n79
b0100 n80
b10100 n81
b10100 n82
b0 n83
b0 n84
b0 n85
b1 n86
b1 n87
b000000 n88
b110110 n89
b110110 n90
b1 n91
b0 n92
b0 n93
b0 n94
b00000000000000000000000000000100 n95
b0110 n96
b0100 n97
b1 n98
b0000 n99
b0100 n100
b0100 n101
b1 n102
b0 n103
b0 n104
b0000 n105
b0000 n106
b1 n107
b00000000 n108
b00000000 n109
b00000000 n110
b1 n111
b0 n112
b0 n113
b10100 n114
b1 n115
b00000 n116
b10100 n117
b10100 n118
b1 n119
b0 n120
b0 n121
b1 n122
b0 n123
b10 n124
b1 n125
b00110000110000000000000000000100 n126
b1 n127
b10000000000000000000000000000000 n128
b00000000000000000000000000000000 n129
b0001 n130
b1 n131
b1 n132
#55
#60
1!
b00000000000000000000000000000110 t
b1 n0
b0 n1
b0 n2
b0 n3
b1 n4
b0 n5
b1 n6
b1 n7
b00000000000000000000000000000000 n8
b1 n9
b1 n10
b1 n11
b0 n12
b1 n13
b1 n14
b00000000000000000000000000000000 n15
b00000000 n16
b00000000 n17
b1 n18
b0 n19
b0 n20
b1 n21
b0 n22
b1 n23
b0 n24
b0 n25
b1 n26
b0 n27
b000000000000000000000000000000000000000000000000 n28
b00000000000000000000000000000010 n29
b0 n30
b000 n31
b0 n32
b0 n33
b0 n34
b000010 n35
b10000000000000000000000000000000 n36
b00000000000000000000000000000000 n37
b00000000 n38
b00000000 n39
b00000000 n40
b00000000 n41
b00000000000000000000000000000000 n42
b00000000000000000000000000000000 n43
b1 n44
b1 n45
b1 n46
b1 n47
b1 n48
b0 n49
b1 n50
b1 n51
b00000000 n52
b00000000 n53
b00000000 n54
b1 n55
b1 n56
b0 n57
b0 n58
b1 n59
b010101 n60
b000 n61
b0 n62
b0 n63
b0 n64
b1 n65
b0 n66
b0 n67
b0 n68
b1 n69
b0 n70
b0001 n71
b0000 n72
b0110 n73
b0110 n74
b0100 n75
b0100 n76
b0000 n77
b0100 n78
b0000 n79
b0100 n80
b10100 n81
b10100 n82
b0 n83
b0 n84
b0 n85
b1 n86
b0 n87
b000000 n88
b110110 n89
b110110 n90
b1 n91
b0 n92
b0 n93
b0 n94
b00000000000000000000000000000100 n95
b0110 n96
b0100 n97
b0 n98
b0000 n99
b0100 n100
b0100 n101
b1 n102
b0 n103
b0 n104
b0000 n105
b0000 n106
b0 n107
b00000000 n108
b00000000 n109
b00000000 n110
b1 n111
b0 n112
b0 n113
b10100 n114
b0 n115
b00000 n116
b10100 n117
b10100 n118
b1 n119
b0 n120
b0 n121
b0 n122
b0 n123
b10 n124
b1 n125
b00110000110000000000000000000100 n126
b1 n127
b10000000000000000000000000000000 n128
b00000000000000000000000000000000 n129
b0001 n130
b1 n131
b1 n132
#65
#70
1!
b00000000000000000000000000000111 t
b1 n0
b0 n1
b0 n2
b0 n3
b0 n4
b0 n5
b0 n6
b1 n7
b00000000000000000000000000000000 n8
b1 n9
b1 n10
b1 n11
b0 n12
b1 n13
b1 n14
b00000000000000000000000000000000 n15
b00000000 n16
b00000000 n17
b1 n18
b0 n19
b0 n20
b1 n21
b0 n22
b1 n23
b0 n24
b0 n25
b1 n26
b0 n27
b000000000000000000000000000000000000000000000000 n28
b00000000000000000000000000000000 n29
b0 n30
b000 n31
b0 n32
b0 n33
b1 n34
b000001 n35
b00000000000000000000000000000000 n36
b00000000000000000000000000000000 n37
b00000000 n38
b00000000 n39
b00000000 n40
b00000000 n41
b00000000000000000000000000000000 n42
b00000000000000000000000000000000 n43
b1 n44
b1 n45
b1 n46
b1 n47
b1 n48
b0 n49
b1 n50
b1 n51
b00000000 n52
b00000000 n53
b00000000 n54
b1 n55
b1 n56
b0 n57
b0 n58
b1 n59
b010101 n60
b000 n61
b0 n62
b0 n63
b0 n64
b1 n65
b0 n66
b0 n67
b0 n68
b1 n69
b0 n70
b0000 n71
b0000 n72
b0110 n73
b0110 n74
b0100 n75
b0100 n76
b0000 n77
b0100 n78
b0000 n79
b0100 n80
b10100 n81
b10100 n82
b0 n83
b0 n84
b0 n85
b0 n86
b1 n87
b000000 n88
b110110 n89
b110110 n90
b1 n91
b0 n92
b0 n93
b0 n94
b00000000000000000000000000000000 n95
b0110 n96
b0100 n97
b1 n98
b0000 n99
b0100 n100
b0100 n101
b1 n102
b0 n103
b0 n104
b0000 n105
b0000 n106
b1 n107
b00000000 n108
b00000000 n109
b00000000 n110
b1 n111
b0 n112
b0 n113
b10100 n114
b1 n115
b00000 n116
b10100 n117
b10100 n118
b1 n119
b0 n120
b0 n121
b1 n122
b0 n123
b11 n124
b0 n125
b00000000000000000000000000000000 n126
b0 n127
b00000000000000000000000000000000 n128
b00000000000000000000000000000000 n129
b0000 n130
b0 n131
b0 n132
#75
#80
1!
b00000000000000000000000000001000 t
